<?xml version="1.0" encoding="UTF-8"?>
<svg width="190px" height="89px" viewBox="0 0 190 89" version="1.1" xmlns="http://www.w3.org/2000/svg" xmlns:xlink="http://www.w3.org/1999/xlink">
    <!-- Generator: Sketch 41.2 (35397) - http://www.bohemiancoding.com/sketch -->
    <title>gethelpnow</title>
    <desc>Created with Sketch.</desc>
    <defs>
        <polygon id="path-1" points="0.4953 7 189.1613 7 189.1613 0.5975 0.4953 0.5975"></polygon>
        <polygon id="path-3" points="189.1621 0.753 0.4961 0.753 0.4961 7.1553 189.1621 7.1553"></polygon>
    </defs>
    <g id="Page-1" stroke="none" stroke-width="1" fill="none" fill-rule="evenodd">
        <g id="gethelpnow" transform="translate(0.000000, -1.000000)">
            <g id="Page-1">
                <g id="Group">
                    <g id="GET-HELP-NOW" transform="translate(4.000000, 37.000000)" fill="#FFFFFF">
                        <path d="M6.576,2.2526891 C5.616,2.3966891 5.136,2.5406891 5.136,2.6846891 L4.8,2.5886891 C3.504,3.1646891 2.64,3.9806891 2.208,5.0366891 L1.44,6.9086891 C0.912,9.0686891 0.624,10.7006891 0.624,11.8526891 L0.624,12.3806891 L0.72,12.8606891 L0.624,12.9566891 L0.624,13.0526891 L0.72,13.1486891 L0.624,13.1486891 L0.72,13.3886891 L0.624,13.7246891 L0.624,13.8206891 L0.72,13.9166891 L0.624,13.9166891 L0.528,14.0126891 L0.72,15.4046891 L0.528,15.8846891 L0.624,15.8846891 L0.432,17.7566891 L0.432,17.8526891 L0.528,17.9486891 L0.432,17.9486891 L0.528,18.1886891 L0.528,18.2846891 L0.432,18.3806891 L0.432,18.4766891 L0.528,18.5246891 L0.432,18.8126891 L0.432,18.9086891 L0.528,19.0046891 L0.432,19.2446891 L0.528,19.7246891 L0.432,19.8206891 L0.528,19.8206891 L0.24,21.3086891 L0.336,21.6446891 L0.336,21.7406891 L0.24,21.8366891 L0.336,21.9326891 L0.336,22.1246891 L0.24,22.1726891 L0.336,22.2686891 L0.24,22.7486891 L0.336,22.8446891 L0.24,22.8446891 L0.336,22.9406891 L0.192,25.9646891 L0.192,26.0606891 L0.096,26.1086891 L0.192,26.2046891 L0.192,27.1646891 L0.096,27.2606891 L0.192,27.2606891 L0,27.7406891 L0.096,27.8366891 L0.096,29.3246891 L0,29.4206891 C0.144,29.4206891 0.192,29.6126891 0.192,29.9486891 C0.432,31.0526891 0.864,31.9646891 1.44,32.6366891 C1.584,33.0206891 1.776,33.3566891 2.112,33.5966891 L3.456,34.8446891 L3.552,34.7486891 L4.704,35.3726891 L4.896,35.1806891 C5.184,35.2766891 5.328,35.3726891 5.328,35.4686891 L5.808,35.3726891 L5.904,35.3726891 L6,35.4686891 L6.048,35.3726891 L6.144,35.3726891 L6.144,35.5646891 L6.432,35.4686891 L6.96,35.6606891 L8.112,35.3726891 L8.112,35.4686891 L8.736,35.1806891 L8.832,35.1806891 L8.928,35.2766891 L9.552,35.0366891 C10.944,34.4606891 11.856,33.6926891 12.288,32.7326891 L12.288,32.5406891 L12.096,32.5406891 L12.192,32.2526891 L12.096,31.6286891 L12.288,31.6286891 L12.192,31.5326891 L12.48,31.1006891 L12.48,31.0046891 L12.384,30.9566891 L12.672,30.6686891 L12.672,30.5726891 L12.48,29.8526891 L12.48,29.7566891 L12.576,29.6606891 L12.288,28.2686891 L12.288,28.1726891 L12.384,28.0766891 L12.288,27.9806891 L12.384,27.4526891 L12.384,27.3566891 L12.288,27.2606891 L12.48,26.1086891 L12.48,26.0606891 C12.48,25.7246891 12.288,25.4846891 11.952,25.3886891 L11.856,25.3886891 L11.76,25.4846891 L11.76,25.2926891 L11.664,25.3886891 L11.568,25.2926891 C10.944,25.1966891 10.608,25.0526891 10.608,24.8606891 L10.32,24.9566891 L10.224,24.9566891 L10.224,24.7646891 L10.032,24.7646891 L9.264,24.6206891 C9.072,24.7646891 8.736,24.9086891 8.208,24.9566891 L8.112,24.8606891 L6.96,25.1966891 L6.672,25.1486891 C6.672,25.2926891 6.336,25.3886891 5.712,25.3886891 L5.232,25.2926891 L5.232,25.3886891 L5.088,25.3886891 L5.088,26.1086891 L6,26.9246891 L6.048,26.8286891 L6.768,27.1646891 L6.864,27.1646891 L6.96,27.1166891 L7.296,27.1646891 L7.824,27.0206891 L8.112,27.1646891 L8.112,27.1166891 C8.544,27.1166891 8.832,27.0686891 8.976,26.9246891 L9.072,26.9246891 L9.072,28.5086891 L9.168,28.6046891 L9.072,28.7006891 L9.168,29.0846891 C8.976,29.9966891 8.784,30.6206891 8.544,30.9566891 C8.544,31.5326891 7.92,32.2526891 6.672,33.1646891 L6.576,33.0686891 L5.904,33.4046891 L4.896,32.1086891 L4.992,31.8206891 L4.992,31.7246891 L4.368,29.7566891 L4.56,29.7566891 L4.368,29.3246891 L4.368,29.2286891 L4.464,29.1806891 L4.368,29.1806891 C4.368,28.6526891 4.416,28.2206891 4.56,27.8846891 L4.464,27.8366891 L4.656,27.6446891 L4.56,27.1646891 L4.656,26.7326891 L4.56,26.6366891 L4.704,25.3886891 L4.656,25.1486891 L4.8,24.9566891 L4.656,24.7646891 L4.8,24.3326891 L4.704,24.3326891 L4.8,23.9966891 L4.8,23.9006891 L4.704,23.8046891 L4.8,23.5166891 L4.704,23.4206891 L4.704,23.2766891 L4.8,23.1806891 L4.704,23.1806891 L4.896,21.1646891 L4.8,20.5886891 L4.896,19.7246891 L4.8,19.6286891 L4.896,19.5326891 L4.896,19.4366891 L4.8,19.3406891 L4.896,19.3406891 L4.8,19.2446891 L4.8,19.1966891 L4.896,19.1006891 L4.896,19.0046891 L4.8,18.9086891 L4.896,18.9086891 L4.8,18.8126891 L4.896,18.3806891 L4.896,18.2846891 L4.8,18.1886891 L4.992,17.9486891 L4.8,17.9486891 L4.8,17.7566891 L4.992,17.5646891 L4.8,17.2766891 L4.992,17.2766891 L4.8,16.9406891 L4.896,16.9406891 L4.8,16.7006891 L4.896,16.3166891 L4.896,16.2206891 L4.8,16.1726891 L4.8,16.0766891 L4.896,15.9806891 L4.8,15.5006891 L4.896,14.7326891 L4.8,13.7246891 L4.896,13.4846891 L4.8,13.3886891 L4.896,13.3886891 L4.704,12.6686891 L5.088,10.4606891 L4.992,10.4606891 L5.088,10.3646891 C5.088,9.7406891 5.52,8.3486891 6.432,6.0926891 C6.96,5.2766891 7.632,4.7006891 8.544,4.3646891 L8.544,4.4606891 C8.784,4.3166891 9.168,4.1726891 9.696,4.1246891 L9.792,4.2206891 L10.224,4.0286891 C10.224,4.1246891 10.368,4.2206891 10.704,4.2686891 L10.8,4.2206891 L10.8,4.3646891 L10.944,4.3646891 L11.328,4.2686891 L11.376,4.2686891 L11.472,4.3646891 L11.76,4.2686891 L11.856,4.2686891 L11.952,4.3646891 L11.952,4.2206891 L12,4.2686891 C12.144,4.2686891 12.24,4.1246891 12.288,3.8366891 C12.288,3.5966891 11.952,3.4046891 11.232,3.1646891 L11.232,3.2126891 C11.04,3.0686891 10.512,2.8286891 9.696,2.5886891 L9.456,2.5886891 L9.36,2.3486891 L9.264,2.4446891 L8.208,2.1566891 L7.824,2.2526891 L7.776,2.1566891 L7.776,2.2526891 L7.488,2.1566891 L6.96,2.2526891 L6.576,2.1566891 L6.576,2.2526891 Z M22.608,2.2046891 C21.984,2.2046891 21.552,2.2526891 21.408,2.3486891 L21.36,2.3486891 L21.264,2.2526891 L20.928,2.4446891 L20.928,2.3486891 C20.016,2.5406891 19.392,2.7326891 19.104,2.9246891 L19.008,2.9246891 L18.912,2.8286891 L18.912,2.9246891 L17.136,3.8846891 L16.08,5.6606891 C15.456,6.9086891 15.072,8.2526891 14.928,9.6446891 L15.024,9.6446891 L14.928,9.9326891 L14.928,10.0286891 L15.024,10.1246891 L14.928,10.1726891 L14.928,10.8446891 L15.024,11.1806891 L15.024,11.2766891 L14.928,11.3726891 L15.12,14.2046891 L15.024,14.3006891 L15.12,14.8286891 L15.12,15.0206891 L15.024,15.1166891 C15.072,15.1166891 15.168,15.4526891 15.264,16.0766891 L15.168,16.1726891 L15.168,16.2686891 L15.264,16.3166891 L15.168,16.3166891 L15.264,16.6046891 L15.264,16.7006891 L15.168,16.7966891 L15.36,17.5166891 L15.264,17.5166891 L15.36,17.6126891 L15.264,18.0446891 L15.264,18.3806891 L15.36,18.4766891 L15.264,18.4766891 L15.36,18.7646891 L15.168,18.9566891 L15.36,20.6366891 L15.36,21.3086891 L15.456,21.7886891 L15.36,21.7886891 L15.36,21.9806891 L15.456,22.4126891 L15.36,22.5086891 L15.36,22.5566891 L15.456,22.6526891 L15.36,22.9406891 L15.36,23.0366891 L15.456,23.1326891 L15.456,23.1806891 L15.36,23.2766891 L15.456,23.7566891 L15.36,24.4286891 L15.36,24.5246891 L15.456,24.6206891 L15.36,24.6206891 L15.456,25.3406891 L15.456,25.4366891 L15.36,25.5326891 L15.456,25.8686891 L15.456,26.3966891 L15.36,27.3086891 L15.456,27.4046891 L15.264,27.9326891 L15.36,27.9326891 L15.264,28.1726891 L15.264,28.2686891 L15.36,28.3646891 L15.264,28.6526891 L15.264,28.7486891 L15.36,28.7966891 L15.264,29.9966891 L15.36,30.4286891 L15.264,30.5246891 L15.36,30.7646891 L15.36,30.8606891 L15.264,30.9566891 L15.36,31.9166891 L15.36,32.0126891 L15.552,32.0126891 L15.552,32.1086891 L15.456,32.2046891 L15.456,32.3006891 L15.552,32.3486891 L15.456,32.4446891 C15.6,32.8286891 15.792,33.0206891 15.936,33.0206891 L15.936,33.1166891 L15.84,33.1646891 L15.936,33.1646891 C16.176,33.6926891 16.608,34.1726891 17.232,34.7006891 C17.712,34.9406891 17.952,35.0846891 17.952,35.2286891 L18.048,35.1326891 L19.2,35.6606891 L19.296,35.6606891 L19.392,35.5646891 L20.976,36.1406891 L21.408,36.0446891 L21.504,36.0446891 L21.6,36.1406891 L21.6,36.0446891 L21.696,36.1406891 L21.792,36.0446891 L22.128,36.1406891 L22.512,36.0446891 L22.608,36.0446891 L22.704,36.1406891 L23.76,35.9486891 L23.856,36.0446891 C24.432,35.9966891 24.816,35.8526891 25.056,35.6606891 L25.056,35.7566891 L26.064,35.4206891 L26.16,35.4686891 L26.16,35.4206891 L26.88,34.7966891 L26.88,34.6046891 C26.64,34.6046891 26.448,34.5086891 26.256,34.3166891 L26.256,34.2206891 L25.968,34.3166891 C25.872,34.1726891 25.44,34.0286891 24.624,33.8846891 L24.624,33.9806891 L24.528,33.8846891 L24.48,33.9806891 L23.04,33.7886891 L21.36,34.3166891 C21.072,34.3166891 20.928,34.2686891 20.928,34.1726891 C20.592,34.0766891 20.16,33.5006891 19.632,32.4446891 L19.728,32.4446891 L19.584,31.7726891 L19.632,31.2926891 L19.584,31.1966891 L19.632,31.1486891 L19.632,31.0526891 L19.584,30.9566891 L19.632,30.9566891 L19.584,30.3326891 L19.584,29.3246891 L19.488,29.2286891 L19.632,29.2286891 L19.584,28.9886891 L19.632,28.6526891 L19.632,28.4606891 L19.584,28.3646891 L19.632,28.2686891 L19.632,27.9326891 L19.728,27.0206891 L19.632,26.9726891 L19.632,26.8766891 L19.728,26.7806891 L19.632,26.3966891 L19.632,26.3006891 L19.728,26.2046891 L19.632,26.2046891 L19.728,25.7726891 L19.632,24.8126891 L19.632,24.2846891 L19.728,23.9006891 L19.632,23.5646891 L19.632,21.8846891 L19.728,21.7886891 L19.632,21.7886891 L19.728,20.9726891 L19.632,20.6366891 L19.632,20.5406891 L19.728,20.4446891 L19.632,20.3486891 L19.632,20.1086891 L19.728,19.7246891 L19.584,19.0046891 L19.632,18.7646891 L19.392,14.8286891 L19.296,14.5406891 L19.392,14.4926891 L19.392,14.3966891 L19.296,14.3006891 L19.392,14.2046891 L19.392,14.0606891 L19.296,13.9646891 L19.392,13.9646891 L19.296,13.2926891 L19.296,12.7166891 L20.16,12.8606891 L20.16,12.7646891 L20.736,12.8606891 L20.832,12.8606891 L20.928,12.7646891 L20.976,12.8606891 L21.072,12.8606891 L21.168,12.7646891 L21.168,12.8606891 L21.264,12.7646891 L21.36,12.8606891 L21.936,12.7646891 L22.128,12.7646891 L22.224,12.8606891 L22.32,12.7646891 L22.512,12.7646891 L22.608,12.8606891 L22.608,12.7646891 L22.704,12.8606891 L22.848,12.7166891 L22.944,12.7646891 L23.376,12.7166891 L23.664,12.7166891 L23.76,12.7646891 L23.76,12.7166891 L23.856,12.7166891 L23.904,12.7646891 L23.904,12.6206891 L24,12.6206891 L24.096,12.7166891 L24.384,12.7166891 L24.48,12.6206891 L24.48,12.7166891 C25.248,12.4766891 25.632,12.2366891 25.632,11.9966891 C25.152,11.8526891 24.912,11.7086891 24.912,11.5166891 C23.184,11.0846891 22.32,10.7966891 22.32,10.6526891 L22.224,10.7486891 L21.792,10.5566891 L21.264,10.7486891 L21.264,10.6526891 L21.168,10.7486891 L20.736,10.6526891 L19.632,10.6526891 L19.584,10.7486891 L19.584,10.6526891 L19.488,10.7486891 L19.392,10.7486891 L19.296,10.6526891 C19.296,9.6446891 19.488,8.7806891 19.824,7.9646891 L19.824,7.8686891 L19.728,7.8206891 L19.824,7.8206891 C20.352,6.5246891 20.976,5.6126891 21.6,5.0366891 L21.696,5.1326891 C21.984,4.8446891 22.32,4.6526891 22.752,4.5086891 C23.76,4.3646891 24.336,4.2206891 24.528,4.0766891 L24.624,4.0766891 L24.72,4.1726891 C24.864,4.0286891 25.488,3.9326891 26.592,3.7886891 L26.688,3.8846891 L26.688,3.7886891 L27.12,3.8846891 L27.12,3.6926891 L27.216,3.7886891 L27.84,3.5006891 L27.84,3.4046891 C27.696,3.0686891 27.456,2.9246891 27.024,2.9246891 C26.112,2.3966891 25.344,2.1086891 24.72,2.1086891 L24.72,2.2046891 L24.48,2.1086891 L24.384,2.1086891 L24.288,2.2046891 L24.192,2.1086891 L23.664,2.1086891 L23.568,2.2046891 L23.568,2.1086891 L22.752,2.2046891 L22.704,2.2046891 L22.608,2.1086891 L22.608,2.2046891 Z M29.28,1.2446891 L29.184,1.1966891 L29.376,1.6286891 L29.376,1.7246891 L29.28,1.8206891 C29.472,1.8206891 29.616,2.0126891 29.712,2.3486891 L30.336,2.8766891 L30.432,2.7806891 L31.536,3.1646891 L31.536,3.0686891 L32.208,3.3086891 L32.304,3.3086891 L32.4,3.2126891 L34.08,3.5006891 L34.176,3.4046891 L34.272,3.5006891 L33.888,8.4926891 L33.984,8.5886891 L33.888,8.6846891 L33.888,10.5086891 L33.84,10.6046891 L33.888,10.7006891 L33.888,11.8526891 L33.84,11.9486891 L33.888,11.9486891 L33.84,12.4766891 L33.84,12.5726891 L33.888,12.6686891 L33.84,12.6686891 L33.84,12.7646891 L33.888,12.8606891 L33.888,13.0526891 L33.84,14.0126891 L33.84,14.1086891 L33.888,14.2046891 L33.888,14.2526891 L33.84,14.3486891 L33.888,14.6366891 L33.84,14.6366891 L33.888,15.0686891 L33.888,15.1646891 L33.84,15.2606891 L33.84,15.3566891 L33.888,15.4046891 L33.84,15.5006891 L33.84,16.8446891 L33.888,16.9406891 L33.84,16.9406891 L33.888,17.0366891 L33.84,17.1326891 L33.888,17.1806891 L33.888,17.2766891 L33.84,17.3726891 L33.84,17.6606891 L33.888,17.7566891 L33.84,17.8526891 L33.84,18.6206891 L33.888,18.7166891 L33.84,18.8126891 L33.84,20.0606891 L33.744,20.4926891 L33.84,20.5886891 L33.744,20.8766891 L33.744,20.9726891 L33.84,21.0686891 L33.84,21.1646891 L33.744,21.2126891 L33.84,21.5966891 L33.744,21.9326891 L33.84,22.2686891 L33.84,22.8446891 L33.744,22.9406891 L33.84,22.9886891 L33.84,25.7726891 L33.888,25.8686891 L33.84,25.8686891 L33.888,26.3006891 L33.84,26.5406891 L33.888,26.9246891 L33.888,27.1166891 L33.84,27.4526891 L33.888,27.8366891 L33.888,28.7006891 L33.84,29.0846891 L33.888,29.4206891 L33.888,31.0046891 L33.84,31.4366891 L33.888,31.7246891 L33.888,32.8766891 L33.84,32.9726891 L33.888,32.9726891 L33.84,33.0686891 L33.888,33.1646891 L33.84,33.4046891 L34.08,34.5086891 C34.368,34.9886891 34.848,35.3246891 35.52,35.5646891 L35.856,35.4686891 L36.24,35.6606891 L36.528,35.4686891 L36.528,35.5646891 L36.768,35.2766891 L36.864,35.3726891 L37.296,35.1326891 L37.584,35.1806891 L37.824,34.5566891 L37.824,34.1246891 L37.68,33.9806891 L37.728,33.6926891 L37.728,33.5966891 L37.68,33.5006891 C37.68,33.0206891 37.776,32.7806891 38.016,32.7806891 L38.016,32.5406891 L37.92,32.4446891 L38.016,32.3486891 L38.016,31.9166891 L37.728,30.6686891 L37.824,30.5726891 L37.92,30.5726891 L38.016,30.6686891 L38.112,30.6686891 L38.112,30.2846891 L38.016,29.9486891 L38.112,29.6126891 L38.112,28.5086891 L38.016,28.4126891 L38.112,28.4126891 L37.92,27.3566891 L37.92,27.2606891 L38.016,27.1646891 L37.92,27.1166891 L37.92,24.6206891 L37.824,24.1886891 L38.016,23.9966891 L38.016,23.6126891 L37.92,23.5166891 L38.016,23.5166891 L37.92,23.4206891 L38.016,23.0846891 L38.016,22.9886891 L37.92,22.9406891 L37.92,22.8446891 L38.016,22.7486891 L37.92,22.3646891 L37.92,21.2126891 L38.016,21.1646891 L37.92,21.0686891 L37.92,20.3966891 L38.016,20.3006891 L37.92,20.3006891 L38.016,19.9646891 L37.92,19.6286891 L37.92,18.7166891 L38.016,18.0926891 L37.92,18.0926891 L37.92,17.8526891 L38.016,17.7566891 L37.92,17.3726891 L37.92,17.1806891 L38.016,17.1326891 L37.92,17.1326891 L38.016,16.5086891 L38.016,15.5966891 L37.92,15.1646891 L38.016,15.0686891 L38.016,14.9726891 L37.92,14.9246891 L38.016,14.8286891 L38.016,12.6686891 L38.112,12.5726891 L38.016,12.5726891 L38.112,12.2846891 L38.016,12.0446891 L38.112,11.6126891 L38.016,10.7006891 L38.112,10.0286891 L37.92,9.1166891 L38.016,9.0206891 L38.016,7.7726891 L38.112,7.6766891 L38.016,7.5806891 L38.016,7.4846891 L38.112,7.3886891 L38.016,7.3886891 L38.016,7.3406891 L38.112,7.2446891 L38.112,6.8126891 L38.352,4.3646891 L38.208,4.1246891 L38.208,4.0286891 L38.304,3.9326891 L38.208,3.8366891 C38.208,3.5486891 38.16,3.4046891 38.016,3.4046891 L38.016,3.3086891 L38.112,3.3086891 L38.448,3.4046891 L38.784,3.3086891 L38.976,3.3086891 L39.072,3.4046891 L39.168,3.3086891 L39.552,3.3086891 L39.984,3.4046891 L40.08,3.3086891 L41.04,3.5006891 L41.76,3.3086891 L41.76,3.4046891 C42.48,3.3566891 42.816,3.3086891 42.816,3.1646891 L42.912,3.2126891 C43.008,3.2126891 43.104,3.1166891 43.2,2.8766891 L42.72,2.3486891 C41.664,1.9166891 41.136,1.5806891 41.136,1.3406891 L41.04,1.4366891 L38.976,1.1966891 L38.448,1.1966891 L38.352,1.2446891 L38.352,1.1966891 L38.304,1.1966891 L38.208,1.2446891 L38.112,1.2446891 L38.016,1.1966891 L38.016,1.2446891 L37.92,1.2446891 L37.824,1.1966891 L37.104,1.1966891 L37.008,1.2446891 L36.432,1.1006891 L36.336,1.1966891 L35.088,1.1966891 L34.992,1.1006891 L34.992,1.1966891 L34.656,1.1006891 L34.272,1.1966891 L33.888,1.1006891 L33.552,1.1966891 L33.312,1.1966891 L33.216,1.1006891 L33.12,1.1966891 L32.832,1.1966891 L32.736,1.1006891 L32.64,1.1966891 L30.624,1.1966891 L30.528,1.1006891 L30.528,1.1966891 L29.808,1.1006891 L29.28,1.2446891 Z M60.0756237,26.1086891 L59.904,26.1086891 L59.904,26.0126891 L60,26.0126891 C60.029848,26.0126891 60.0550559,26.04517 60.0756237,26.1086891 L60.0756237,26.1086891 Z M60.0844545,26.1389403 C60.1241515,26.2892565 60.144,26.5714273 60.144,26.9726891 L60.24,26.9726891 L60.336,25.2926891 L60.144,24.8606891 L60.24,24.8606891 L60.144,24.7646891 L60.336,24.3806891 L60.24,24.1406891 L60.336,24.0446891 L60.336,23.9486891 L60.24,23.9486891 L60.144,24.0446891 L60.144,23.6126891 L60.096,23.6126891 L60.096,23.8046891 L60,23.8046891 L60,23.4206891 L60.096,23.3246891 L60,23.3246891 L60.096,22.7966891 L60.24,22.7966891 L60.144,22.8926891 L60.144,22.9886891 L60.24,23.0846891 L60.24,23.4206891 L60.096,23.4206891 L60.096,23.5166891 C60.192,23.5166891 60.24,23.6126891 60.24,23.8526891 L60.336,23.8526891 L60.432,22.6046891 L60.336,22.5086891 C60.432,22.5086891 60.48,22.3166891 60.528,21.9326891 L60.432,21.6446891 L60.528,20.8286891 L60.432,20.3966891 L60.528,20.3006891 L60.432,20.2046891 L60.432,20.0606891 L60.528,19.9646891 L60.432,19.8686891 L60.432,19.4846891 L60.528,19.0526891 L60.432,18.9566891 L60.72,17.7086891 L60.624,17.6126891 L60.72,17.3726891 L60.72,17.2766891 L60.624,17.1806891 L60.816,16.0286891 L60.72,15.9326891 L60.72,15.7886891 L60.816,14.9726891 L60.816,14.8766891 L60.72,14.7806891 L60.864,14.2526891 L60.816,14.1566891 L60.816,13.9166891 L60.864,13.8206891 L60.816,13.7246891 L60.816,13.2446891 L60.864,13.1966891 L60.816,13.1966891 L60.864,12.5726891 L60.864,11.9486891 C62.016,11.8046891 62.592,11.6606891 62.592,11.4686891 L62.832,11.5646891 L63.168,11.3726891 L63.36,11.8526891 L63.264,11.9486891 L63.264,12.1886891 L63.36,12.6686891 L63.264,12.7166891 L63.264,12.8126891 L63.36,12.9086891 L63.264,13.5326891 L63.264,13.6286891 L63.36,13.7246891 L63.36,13.8206891 L63.264,13.9166891 L63.36,13.9166891 L63.264,14.0126891 L63.264,14.0606891 L63.36,14.1566891 L63.36,14.4926891 L63.264,14.5886891 L63.36,14.6846891 L63.36,15.5966891 L63.264,15.6926891 L63.36,15.7886891 L63.36,16.4606891 L63.264,16.9406891 L63.36,17.1806891 L63.36,17.2766891 L63.264,17.3726891 L63.36,17.3726891 L63.264,17.7086891 L63.36,18.3326891 L63.264,18.7166891 L63.264,18.8126891 L63.36,18.9086891 L63.264,18.9566891 L63.264,19.7726891 L63.36,19.8686891 L63.264,19.8686891 L63.36,19.9646891 L63.264,20.0606891 L63.36,20.3966891 L63.36,20.4926891 L63.264,20.5886891 L63.456,20.8286891 L63.36,20.9246891 L63.36,21.0206891 L63.456,21.4526891 L63.36,21.5486891 L63.552,22.5086891 L63.456,22.5086891 L63.648,24.2366891 L63.552,24.2846891 L63.648,24.6686891 L63.648,24.8606891 L63.456,24.8606891 L63.456,24.9566891 L63.648,24.9566891 L63.648,27.0686891 L63.552,27.1646891 L63.648,27.2606891 L63.648,28.2206891 L63.552,28.7006891 L63.648,28.7486891 L63.552,29.0366891 L63.648,29.0366891 L63.648,29.1326891 L63.552,29.1806891 L63.552,32.1566891 L63.648,32.7806891 L63.552,32.8766891 L63.648,32.8766891 L63.456,33.5966891 L63.552,33.5966891 C63.552,34.3646891 63.888,34.8446891 64.512,35.0846891 L64.8,34.9886891 C64.8,35.1326891 64.944,35.1806891 65.232,35.1806891 L65.328,35.1806891 L65.328,34.9886891 L65.856,35.0846891 L66.192,34.8446891 L66.288,34.9406891 C66.576,34.7966891 66.816,34.6046891 66.96,34.3646891 L66.96,33.9326891 L66.864,33.8366891 L67.056,32.9726891 L66.96,32.8766891 L67.056,32.7806891 L67.056,32.5886891 L66.96,32.1566891 L67.056,32.0606891 C66.864,32.0606891 66.768,31.6766891 66.768,30.9086891 L66.768,30.2846891 L66.672,29.8526891 L66.768,29.8526891 L66.864,29.7566891 L66.864,29.6606891 L66.768,29.5646891 L66.768,28.7006891 L66.96,28.4126891 L66.96,28.2206891 L66.864,28.1726891 L66.96,28.0766891 L66.96,27.8846891 L66.864,27.7886891 L66.96,27.6926891 L66.96,27.2606891 L67.056,27.2606891 L67.2,26.7326891 L67.056,26.2046891 L67.056,26.1086891 L67.104,26.0126891 L67.056,26.0126891 L67.2,25.8206891 L67.2,25.7246891 L67.104,25.6286891 L67.104,25.0526891 L67.2,24.9566891 L67.104,24.8606891 L67.104,24.7646891 L67.2,24.6686891 L67.104,24.6686891 L67.2,24.5726891 L67.056,23.3246891 L67.296,22.8926891 L67.296,22.7006891 C67.152,22.7006891 67.008,22.4606891 66.96,21.9326891 L66.96,21.8366891 L67.056,21.7406891 C66.912,21.7406891 66.816,21.5006891 66.768,21.0206891 L66.864,21.0206891 L66.672,20.3966891 L66.864,20.0606891 L66.768,20.0606891 L66.864,19.3886891 L66.864,19.3406891 L66.768,19.2446891 L66.864,19.1486891 L66.864,19.0526891 L66.768,18.9566891 L66.864,18.9566891 L66.864,18.9086891 L66.768,18.8126891 L66.768,18.5246891 L66.864,18.0926891 L66.672,18.0926891 L66.864,17.4686891 L66.768,17.4686891 L67.104,15.1646891 L67.056,15.0686891 L67.104,14.9726891 L67.2,14.9726891 L67.296,15.0686891 L67.296,14.9726891 L67.104,14.6846891 L67.104,14.5886891 L67.296,14.3486891 L67.296,12.6686891 L67.392,12.5726891 L67.296,12.5726891 L67.392,12.1886891 L67.392,12.1406891 L67.296,12.0446891 L67.296,11.9486891 L67.392,11.8526891 L67.296,11.7566891 L67.296,11.0366891 L67.392,10.6046891 L67.296,10.3166891 L67.296,9.9806891 L67.392,9.8846891 C67.248,9.8846891 67.2,9.5966891 67.2,9.0206891 L67.2,8.5406891 L67.104,8.4446891 L67.2,8.3486891 L67.2,8.2526891 L67.104,8.2046891 L67.2,8.2046891 L67.2,8.1086891 L67.104,8.0126891 L67.104,7.3886891 L67.056,6.9566891 L67.104,6.8606891 L67.056,6.7646891 L67.056,6.6686891 L67.104,6.5726891 L66.96,6.3326891 L67.056,6.3326891 C66.912,5.0366891 66.72,4.2686891 66.48,4.1246891 C66.192,4.1246891 66.048,4.0286891 66.048,3.8366891 C65.328,3.6926891 64.992,3.5486891 64.992,3.3566891 L64.896,3.4526891 L63.984,3.0206891 L63.744,3.1166891 L63.024,2.7806891 L63.024,2.8766891 L62.736,2.8766891 C62.736,3.2126891 62.832,3.5966891 63.024,4.1246891 L62.928,4.1246891 L63.024,4.3646891 L63.024,4.4606891 L62.928,4.5566891 C63.072,4.5566891 63.12,4.7006891 63.12,4.9886891 L63.024,5.2286891 L63.168,5.6126891 L63.12,5.7086891 L63.12,5.8046891 L63.168,5.9006891 L63.12,5.9966891 L63.12,6.0446891 L63.168,6.1406891 L63.12,6.1406891 L63.12,6.2366891 L63.168,6.3326891 L63.168,7.1486891 L63.264,7.5806891 L63.168,7.6766891 L63.36,8.7326891 C63.312,9.0206891 63.216,9.1646891 63.12,9.1646891 L63.024,9.1646891 L62.928,9.1166891 L62.928,9.1646891 L62.496,9.1166891 L62.16,9.2606891 L61.392,9.2606891 L60.96,9.3566891 L60.96,9.2606891 L60.864,9.1646891 L60.864,9.1166891 L60.96,8.6366891 L60.864,8.5406891 L61.056,7.9166891 C61.008,7.9166891 60.912,7.7246891 60.864,7.2926891 L60.96,6.9566891 L60.864,6.6686891 L60.864,6.5726891 L60.96,6.4766891 L60.96,6.4286891 L60.864,6.3326891 L60.96,4.6526891 L60.96,4.4606891 L61.152,4.2686891 C61.152,3.7406891 60.864,3.3086891 60.336,2.9246891 L60.24,3.0206891 L57.6,2.2046891 L57.072,2.2046891 L56.88,2.8766891 L56.88,3.7406891 L56.784,4.1726891 L56.88,4.2686891 L56.688,5.2286891 L56.784,5.5166891 L56.688,5.8046891 L56.784,5.9006891 L56.784,6.7646891 L56.688,6.8606891 L56.784,6.9566891 L56.784,8.5406891 L56.688,8.6366891 L56.784,8.6366891 L56.592,9.5486891 L56.688,9.5486891 L56.592,9.9806891 L56.688,10.4126891 L56.592,10.5086891 L56.688,10.8926891 L56.592,11.6606891 L56.688,11.9486891 L56.688,12.0446891 L56.592,12.1406891 L56.592,12.1886891 L56.688,12.2846891 L56.592,12.3806891 L56.592,13.6286891 L56.496,14.2526891 L56.592,14.4926891 L56.496,14.9726891 L56.592,15.0686891 L56.496,15.0686891 L56.592,15.1646891 L56.592,15.2126891 L56.496,15.3086891 L56.592,15.6926891 L56.592,15.7886891 L56.496,15.8366891 L56.592,16.2206891 L56.496,16.4606891 L56.592,16.4606891 L56.496,16.5566891 L56.592,17.0366891 L56.592,17.5646891 L56.496,18.3326891 L56.592,18.7166891 L56.496,18.9566891 L56.688,19.4846891 L56.592,19.5806891 L56.592,21.1166891 L56.496,21.5486891 L56.592,21.6446891 L56.4,22.7006891 L56.496,22.7966891 L56.352,23.8526891 L56.4,23.9486891 L56.4,24.0446891 L56.352,24.1406891 L56.4,24.1406891 L56.4,24.2366891 L56.352,24.2846891 L56.352,25.4846891 L56.4,25.5806891 L56.256,26.4446891 L56.352,26.4446891 L56.256,26.5406891 L56.16,29.1806891 L56.16,29.8526891 L56.256,29.9486891 L56.16,29.9486891 L56.352,31.0046891 L56.256,31.4366891 L56.352,31.8686891 L56.352,32.3966891 L56.256,32.4926891 L56.352,32.5886891 L56.352,33.7406891 L56.4,33.8366891 L56.352,33.8366891 L56.4,34.1246891 L56.4,34.1726891 L56.352,34.2686891 C56.352,34.4126891 56.592,34.6046891 57.072,34.9406891 L57.072,34.8446891 L57.696,35.0846891 L57.744,34.9886891 L58.032,34.9886891 L58.128,35.0846891 L58.128,34.9886891 L58.56,35.0846891 L58.656,35.0846891 L58.752,34.9886891 L58.752,35.0846891 C59.088,34.9406891 59.28,34.7966891 59.28,34.5566891 L59.184,34.5566891 L59.472,34.1726891 L59.376,34.1246891 L59.472,33.6446891 L59.472,33.3086891 L59.376,33.2126891 L59.616,31.6286891 L59.52,31.5326891 C59.664,31.5326891 59.712,31.3886891 59.712,31.1006891 L59.712,30.7166891 L59.616,30.6206891 L59.712,30.5246891 L59.712,29.9486891 L59.808,29.1326891 L59.616,28.3166891 L59.808,28.3166891 L59.712,28.0766891 C59.712,27.4155351 59.8513892,26.7543811 60.0844545,26.1389403 L60.0844545,26.1389403 Z M60.0844545,26.1389403 C60.0882779,26.1288442 60.0921264,26.1187604 60.096,26.1086891 L60.0756237,26.1086891 C60.078669,26.1180939 60.0816126,26.1281792 60.0844545,26.1389403 L60.0844545,26.1389403 Z M60.144,21.6446891 L60.24,22.0766891 L60.096,22.0766891 L60.096,21.6446891 L60.144,21.6446891 Z M60.144,22.2686891 L60.144,22.7006891 L60.096,22.7006891 L60.096,22.2686891 L60.144,22.2686891 Z M60,25.3886891 L60.096,25.4846891 L59.904,25.6286891 L59.904,25.3886891 L60,25.3886891 Z M60,30.3806891 L60.144,30.5246891 L60.144,30.3806891 L60.096,30.2846891 L60.144,30.1886891 L60.096,29.7566891 L60.144,29.6606891 L60.096,29.6606891 L60.144,29.5646891 L60.096,28.8446891 L60,28.8446891 L60,30.3806891 Z M60.096,31.1006891 L60.144,31.1006891 L60.144,30.7166891 L60.096,30.7166891 L60.096,31.1006891 Z M60.096,31.5326891 L60.144,31.5326891 L60.24,31.2446891 L60.096,31.2446891 L60.096,31.5326891 Z M77.184,2.2046891 C76.56,2.2046891 76.128,2.2526891 75.984,2.3486891 L75.936,2.3486891 L75.84,2.2526891 L75.504,2.4446891 L75.504,2.3486891 C74.592,2.5406891 73.968,2.7326891 73.68,2.9246891 L73.584,2.9246891 L73.488,2.8286891 L73.488,2.9246891 L71.712,3.8846891 L70.656,5.6606891 C70.032,6.9086891 69.648,8.2526891 69.504,9.6446891 L69.6,9.6446891 L69.504,9.9326891 L69.504,10.0286891 L69.6,10.1246891 L69.504,10.1726891 L69.504,10.8446891 L69.6,11.1806891 L69.6,11.2766891 L69.504,11.3726891 L69.696,14.2046891 L69.6,14.3006891 L69.696,14.8286891 L69.696,15.0206891 L69.6,15.1166891 C69.648,15.1166891 69.744,15.4526891 69.84,16.0766891 L69.744,16.1726891 L69.744,16.2686891 L69.84,16.3166891 L69.744,16.3166891 L69.84,16.6046891 L69.84,16.7006891 L69.744,16.7966891 L69.936,17.5166891 L69.84,17.5166891 L69.936,17.6126891 L69.84,18.0446891 L69.84,18.3806891 L69.936,18.4766891 L69.84,18.4766891 L69.936,18.7646891 L69.744,18.9566891 L69.936,20.6366891 L69.936,21.3086891 L70.032,21.7886891 L69.936,21.7886891 L69.936,21.9806891 L70.032,22.4126891 L69.936,22.5086891 L69.936,22.5566891 L70.032,22.6526891 L69.936,22.9406891 L69.936,23.0366891 L70.032,23.1326891 L70.032,23.1806891 L69.936,23.2766891 L70.032,23.7566891 L69.936,24.4286891 L69.936,24.5246891 L70.032,24.6206891 L69.936,24.6206891 L70.032,25.3406891 L70.032,25.4366891 L69.936,25.5326891 L70.032,25.8686891 L70.032,26.3966891 L69.936,27.3086891 L70.032,27.4046891 L69.84,27.9326891 L69.936,27.9326891 L69.84,28.1726891 L69.84,28.2686891 L69.936,28.3646891 L69.84,28.6526891 L69.84,28.7486891 L69.936,28.7966891 L69.84,29.9966891 L69.936,30.4286891 L69.84,30.5246891 L69.936,30.7646891 L69.936,30.8606891 L69.84,30.9566891 L69.936,31.9166891 L69.936,32.0126891 L70.128,32.0126891 L70.128,32.1086891 L70.032,32.2046891 L70.032,32.3006891 L70.128,32.3486891 L70.032,32.4446891 C70.176,32.8286891 70.368,33.0206891 70.512,33.0206891 L70.512,33.1166891 L70.416,33.1646891 L70.512,33.1646891 C70.752,33.6926891 71.184,34.1726891 71.808,34.7006891 C72.288,34.9406891 72.528,35.0846891 72.528,35.2286891 L72.624,35.1326891 L73.776,35.6606891 L73.872,35.6606891 L73.968,35.5646891 L75.552,36.1406891 L75.984,36.0446891 L76.08,36.0446891 L76.176,36.1406891 L76.176,36.0446891 L76.272,36.1406891 L76.368,36.0446891 L76.704,36.1406891 L77.088,36.0446891 L77.184,36.0446891 L77.28,36.1406891 L78.336,35.9486891 L78.432,36.0446891 C79.008,35.9966891 79.392,35.8526891 79.632,35.6606891 L79.632,35.7566891 L80.64,35.4206891 L80.736,35.4686891 L80.736,35.4206891 L81.456,34.7966891 L81.456,34.6046891 C81.216,34.6046891 81.024,34.5086891 80.832,34.3166891 L80.832,34.2206891 L80.544,34.3166891 C80.448,34.1726891 80.016,34.0286891 79.2,33.8846891 L79.2,33.9806891 L79.104,33.8846891 L79.056,33.9806891 L77.616,33.7886891 L75.936,34.3166891 C75.648,34.3166891 75.504,34.2686891 75.504,34.1726891 C75.168,34.0766891 74.736,33.5006891 74.208,32.4446891 L74.304,32.4446891 L74.16,31.7726891 L74.208,31.2926891 L74.16,31.1966891 L74.208,31.1486891 L74.208,31.0526891 L74.16,30.9566891 L74.208,30.9566891 L74.16,30.3326891 L74.16,29.3246891 L74.064,29.2286891 L74.208,29.2286891 L74.16,28.9886891 L74.208,28.6526891 L74.208,28.4606891 L74.16,28.3646891 L74.208,28.2686891 L74.208,27.9326891 L74.304,27.0206891 L74.208,26.9726891 L74.208,26.8766891 L74.304,26.7806891 L74.208,26.3966891 L74.208,26.3006891 L74.304,26.2046891 L74.208,26.2046891 L74.304,25.7726891 L74.208,24.8126891 L74.208,24.2846891 L74.304,23.9006891 L74.208,23.5646891 L74.208,21.8846891 L74.304,21.7886891 L74.208,21.7886891 L74.304,20.9726891 L74.208,20.6366891 L74.208,20.5406891 L74.304,20.4446891 L74.208,20.3486891 L74.208,20.1086891 L74.304,19.7246891 L74.16,19.0046891 L74.208,18.7646891 L73.968,14.8286891 L73.872,14.5406891 L73.968,14.4926891 L73.968,14.3966891 L73.872,14.3006891 L73.968,14.2046891 L73.968,14.0606891 L73.872,13.9646891 L73.968,13.9646891 L73.872,13.2926891 L73.872,12.7166891 L74.736,12.8606891 L74.736,12.7646891 L75.312,12.8606891 L75.408,12.8606891 L75.504,12.7646891 L75.552,12.8606891 L75.648,12.8606891 L75.744,12.7646891 L75.744,12.8606891 L75.84,12.7646891 L75.936,12.8606891 L76.512,12.7646891 L76.704,12.7646891 L76.8,12.8606891 L76.896,12.7646891 L77.088,12.7646891 L77.184,12.8606891 L77.184,12.7646891 L77.28,12.8606891 L77.424,12.7166891 L77.52,12.7646891 L77.952,12.7166891 L78.24,12.7166891 L78.336,12.7646891 L78.336,12.7166891 L78.432,12.7166891 L78.48,12.7646891 L78.48,12.6206891 L78.576,12.6206891 L78.672,12.7166891 L78.96,12.7166891 L79.056,12.6206891 L79.056,12.7166891 C79.824,12.4766891 80.208,12.2366891 80.208,11.9966891 C79.728,11.8526891 79.488,11.7086891 79.488,11.5166891 C77.76,11.0846891 76.896,10.7966891 76.896,10.6526891 L76.8,10.7486891 L76.368,10.5566891 L75.84,10.7486891 L75.84,10.6526891 L75.744,10.7486891 L75.312,10.6526891 L74.208,10.6526891 L74.16,10.7486891 L74.16,10.6526891 L74.064,10.7486891 L73.968,10.7486891 L73.872,10.6526891 C73.872,9.6446891 74.064,8.7806891 74.4,7.9646891 L74.4,7.8686891 L74.304,7.8206891 L74.4,7.8206891 C74.928,6.5246891 75.552,5.6126891 76.176,5.0366891 L76.272,5.1326891 C76.56,4.8446891 76.896,4.6526891 77.328,4.5086891 C78.336,4.3646891 78.912,4.2206891 79.104,4.0766891 L79.2,4.0766891 L79.296,4.1726891 C79.44,4.0286891 80.064,3.9326891 81.168,3.7886891 L81.264,3.8846891 L81.264,3.7886891 L81.696,3.8846891 L81.696,3.6926891 L81.792,3.7886891 L82.416,3.5006891 L82.416,3.4046891 C82.272,3.0686891 82.032,2.9246891 81.6,2.9246891 C80.688,2.3966891 79.92,2.1086891 79.296,2.1086891 L79.296,2.2046891 L79.056,2.1086891 L78.96,2.1086891 L78.864,2.2046891 L78.768,2.1086891 L78.24,2.1086891 L78.144,2.2046891 L78.144,2.1086891 L77.328,2.2046891 L77.28,2.2046891 L77.184,2.1086891 L77.184,2.2046891 Z M84.24,2.1086891 L84.336,2.5406891 L84.336,2.6366891 L84.24,2.7326891 L84.432,2.9726891 L84.432,3.0686891 L84.336,3.1646891 L84.672,5.3726891 L84.576,5.4686891 L84.768,6.3806891 L84.672,6.4766891 L84.864,7.5326891 L84.672,8.3006891 L84.768,8.3966891 L84.768,8.6846891 L84.672,9.0686891 L84.768,9.4046891 L84.768,9.6446891 L84.672,9.7406891 L84.768,9.7406891 L84.576,11.5166891 L84.672,11.6126891 L84.672,11.7086891 L84.576,11.8046891 L84.576,11.9006891 L84.672,11.9966891 L84.576,11.9966891 L84.768,13.1486891 L84.672,13.1486891 L84.768,13.7726891 L84.768,15.8366891 L84.672,15.8846891 L84.768,15.8846891 L84.672,16.1726891 L84.96,18.8606891 L84.96,18.9566891 L84.864,19.0046891 L85.056,22.0766891 L84.96,22.0766891 L84.96,22.2206891 C85.104,22.2206891 85.2,23.8046891 85.248,26.9726891 L85.248,27.0206891 L85.152,27.1166891 L85.248,27.1166891 L85.296,29.0846891 L85.248,30.0926891 L85.296,30.1406891 L85.248,30.2366891 L85.248,32.5406891 L85.296,32.6366891 L85.248,32.7326891 L85.248,33.0206891 L85.296,33.1166891 L85.248,33.1166891 L85.248,33.1646891 L85.296,33.2606891 L85.296,33.5486891 L85.248,33.6446891 L85.296,33.6926891 L85.296,33.7886891 L85.248,33.8846891 C85.968,34.8926891 86.736,35.4206891 87.456,35.4206891 L87.456,35.3246891 L88.416,35.4686891 L88.416,35.4206891 L89.568,35.6606891 L89.664,35.5646891 L91.248,35.9486891 L91.344,35.9486891 L91.44,35.8526891 L91.536,35.8526891 L91.632,35.9486891 L91.728,35.9486891 L91.824,35.8526891 L91.824,35.9486891 L91.92,35.9486891 L92.016,35.8526891 L92.256,35.8526891 L92.88,35.9486891 L92.976,35.8526891 L92.976,35.9486891 L93.072,35.9486891 L93.168,35.8526891 L93.216,35.8526891 L93.408,36.0446891 L93.504,35.9486891 L94.848,36.1406891 L94.944,36.1406891 L95.472,35.9486891 L95.568,36.0446891 L95.616,36.0446891 C95.76,36.0446891 95.856,35.9006891 95.904,35.5646891 C95.76,35.0366891 95.568,34.7966891 95.376,34.7966891 L95.184,34.7966891 L95.136,34.8926891 L95.136,34.7966891 L95.04,34.7006891 L94.656,34.6046891 C94.128,34.4606891 93.744,34.3166891 93.504,34.1726891 L93.312,34.1726891 L92.88,34.2206891 L92.784,34.1726891 L92.688,34.1726891 L92.592,34.2206891 L91.92,34.0766891 L91.824,34.0766891 L91.728,34.1726891 L91.728,34.0766891 L91.632,34.1726891 L91.536,34.0766891 L91.2,34.1726891 L90.816,33.9806891 L90.816,34.0766891 L89.328,33.9806891 C88.992,33.9806891 88.8,33.6926891 88.8,33.1646891 L88.896,33.1166891 L88.8,32.5406891 L88.8,32.3486891 L88.896,31.9166891 L88.704,31.6766891 C88.848,31.6766891 88.896,31.2446891 88.896,30.3326891 L89.328,30.3326891 L89.136,27.0206891 L89.232,27.0206891 L89.232,26.7806891 L89.136,26.6846891 L89.136,26.5886891 L89.232,26.4926891 L89.136,26.1566891 L89.136,25.7726891 L88.944,23.6606891 L89.04,23.5646891 L88.944,23.5646891 L88.704,21.2126891 L88.8,21.2126891 L88.896,21.1646891 L88.8,20.7326891 L88.8,20.0126891 L88.608,18.1406891 L88.704,17.7566891 L88.608,17.5166891 L88.704,17.2286891 L88.608,17.1806891 L88.608,15.2606891 L88.704,14.7326891 L88.512,13.3886891 L88.608,13.2926891 L88.512,12.9566891 L88.608,12.4286891 L88.608,11.1806891 L88.704,11.0846891 L88.608,11.0846891 L88.704,10.8446891 L88.608,10.4606891 L88.704,9.6446891 L88.704,9.5966891 L88.608,9.5006891 L88.704,9.1646891 L88.704,9.0686891 L88.608,8.6846891 L88.8,7.8206891 L88.8,7.7246891 L88.704,7.6286891 L88.704,7.5326891 L88.8,7.4366891 L88.608,6.7166891 L88.704,6.6206891 L88.704,6.5246891 L88.608,6.4766891 L88.704,6.4766891 L88.512,5.3726891 L88.608,5.2766891 C88.368,3.8846891 88.128,3.1646891 87.888,3.0686891 C86.784,2.6366891 86.256,2.3966891 86.256,2.2526891 C85.728,2.2526891 85.488,2.2046891 85.488,2.1086891 L85.392,2.0126891 L85.296,2.0126891 L85.248,2.1086891 L85.152,2.1086891 L85.056,2.0126891 L85.056,2.1086891 L84.432,1.9166891 L84.24,2.1086891 Z M103.872,2.7806891 L102.864,2.7806891 L102.432,2.8766891 L102.336,2.7806891 L102.336,2.8766891 L102.24,2.8766891 L102.192,2.7806891 L101.424,2.7806891 L101.328,2.8766891 C100.416,3.0686891 99.936,3.5966891 99.936,4.4606891 L99.936,4.5566891 L100.032,4.6526891 L99.84,5.7086891 L99.936,5.8046891 L99.936,6.1406891 L99.84,6.2366891 L99.936,6.2366891 L99.744,7.9166891 L99.84,8.0126891 L99.648,8.4446891 L99.744,8.5406891 L99.744,9.1646891 L99.648,9.2606891 L99.744,9.2606891 C99.6,10.6046891 99.504,11.9486891 99.504,13.2446891 L99.504,14.5886891 L99.408,14.6846891 L99.504,14.6846891 L99.408,14.7806891 L99.504,15.2126891 L99.504,19.3406891 L99.552,19.7726891 L99.504,19.8686891 L99.552,19.8686891 L99.504,20.1566891 L99.552,20.3966891 L99.552,20.4926891 L99.504,20.5886891 L99.552,20.9246891 L99.552,21.4526891 L99.504,21.5486891 L99.552,21.6446891 L99.552,22.0766891 L99.504,22.1726891 L99.552,22.2686891 L99.552,22.6046891 L99.504,22.7006891 L99.552,22.7006891 L99.504,23.6126891 L99.504,25.7246891 L99.408,26.3486891 L99.504,26.3486891 L99.504,26.5406891 L99.312,26.9246891 L99.504,27.2606891 L99.408,27.2606891 L99.504,27.8846891 L99.408,28.1726891 C99.504,28.1726891 99.552,28.6526891 99.552,29.6606891 L99.552,29.8526891 L99.648,29.9486891 L99.552,29.9486891 L99.744,31.1006891 L99.648,31.1006891 L99.552,31.0046891 L99.648,31.4366891 L99.648,31.7246891 L99.552,32.5886891 L99.648,32.6846891 L99.552,32.7806891 L99.552,32.9726891 L99.504,34.2686891 L99.552,34.3646891 L99.504,34.4606891 L99.504,34.5566891 L99.552,34.5566891 C100.08,34.8926891 100.56,35.1326891 101.088,35.1806891 L101.088,35.0846891 L101.184,35.1806891 L101.28,35.1806891 L101.328,35.0846891 L102.096,35.0846891 C102.576,35.0846891 102.816,34.8446891 102.864,34.3646891 L102.768,34.3646891 L102.864,34.0286891 L102.864,33.9326891 L102.768,33.8366891 L103.056,32.7806891 L102.96,32.7806891 L103.056,32.3006891 L103.056,32.1566891 L102.96,31.7246891 L103.056,31.6286891 L103.056,31.5326891 L102.96,31.4366891 L102.96,31.3406891 L103.056,31.2446891 L102.864,31.1006891 L103.056,30.5246891 L102.864,30.2846891 L102.864,30.1886891 L102.96,30.0926891 L102.864,29.1806891 L102.864,29.1326891 L102.96,29.0366891 L102.864,28.9406891 L102.864,28.4126891 L102.96,28.3166891 L102.864,28.2206891 L102.864,27.5006891 L102.96,27.4046891 L102.864,27.4046891 L102.96,27.1646891 L102.768,26.3486891 L102.768,26.2046891 L102.864,26.1086891 L102.768,26.0126891 L102.768,25.8206891 L102.864,25.7246891 L102.768,25.7246891 L102.672,25.6286891 L102.768,25.3886891 L102.672,25.0526891 L102.672,24.5726891 C102.672,24.1406891 102.768,23.7566891 102.96,23.3246891 L102.864,23.3246891 L103.056,22.2686891 L103.056,22.1726891 L102.96,22.0766891 L103.056,22.0766891 L103.056,22.0286891 L102.96,21.9326891 L102.96,21.7406891 L103.056,21.6446891 L102.96,21.6446891 L102.96,21.5486891 L103.056,21.4526891 L103.056,21.0206891 L102.96,20.9246891 L103.056,20.8286891 L103.056,20.7326891 L102.96,20.1566891 L103.056,20.0606891 L102.96,20.0606891 L103.056,19.7726891 L103.056,19.6766891 L102.96,19.5806891 L102.96,19.4846891 L103.056,19.3886891 L102.96,19.3406891 L102.96,19.2446891 L103.056,19.1486891 L102.96,19.1486891 L103.152,18.3326891 L103.056,18.2366891 L103.056,17.7086891 L103.152,17.7086891 L103.296,18.2366891 L103.248,18.2366891 L103.296,18.3326891 L103.248,18.4286891 L103.296,18.5246891 L103.248,18.6206891 L103.296,18.9086891 L103.392,18.9086891 L103.488,18.0926891 L103.488,17.9966891 L103.392,17.9006891 L103.488,17.9006891 L103.392,17.5646891 L103.392,17.4686891 L103.488,17.3726891 L103.488,17.2766891 L103.392,17.1806891 L103.488,17.1326891 L103.488,17.0366891 L103.392,16.9406891 L103.488,16.9406891 L103.392,16.6526891 L103.392,16.5566891 L103.488,16.4606891 L103.488,16.3646891 L103.392,16.2686891 L103.488,16.2206891 L103.488,14.7806891 L103.68,13.8206891 L103.68,13.2446891 L103.584,13.1966891 L103.68,12.8126891 L104.304,13.0046891 L104.4,12.9086891 C104.4,13.0526891 104.736,13.1486891 105.36,13.2446891 L105.456,13.2446891 L105.552,13.1966891 L105.648,13.2446891 L106.08,13.2446891 L106.176,13.1966891 L106.176,13.2446891 L106.272,13.1966891 L106.32,13.2446891 L106.416,13.1966891 L106.512,13.1966891 L106.608,13.2446891 L106.8,13.1006891 L106.896,13.1966891 L107.328,13.1006891 L107.52,13.2446891 L108.144,13.0046891 L108.144,13.1006891 L108.48,13.0046891 L108.768,13.1006891 C109.2,13.1006891 109.728,12.9086891 110.256,12.5726891 L110.208,12.4766891 C110.208,12.2366891 110.304,12.1406891 110.544,12.1406891 C110.976,11.6126891 111.36,11.3726891 111.6,11.3726891 L113.04,10.8926891 C113.28,10.8926891 113.808,10.3166891 114.624,9.1646891 L114.624,8.5406891 C114.624,7.9646891 114.528,7.6766891 114.336,7.6766891 L114.432,7.5806891 L114.192,7.0526891 L114.192,6.9566891 L114.288,6.8606891 L114,6.4286891 C113.712,5.9006891 113.424,5.6126891 113.136,5.6126891 L113.136,5.5166891 L113.232,5.4206891 L113.232,5.3246891 C112.992,5.3246891 112.848,5.2286891 112.848,4.9886891 L112.128,4.5566891 C111.36,4.2686891 110.976,4.0286891 110.976,3.8366891 L110.784,3.8366891 L110.688,3.9326891 C110.592,3.7886891 109.632,3.4526891 107.856,2.9246891 L107.76,2.9246891 L107.664,3.0206891 L106.896,2.7806891 L106.896,2.8766891 L106.8,2.7806891 L106.704,2.8766891 L106.08,2.7806891 L105.216,2.7806891 L105.12,2.6846891 L105.024,2.7806891 L104.544,2.7806891 L104.448,2.6846891 L104.4,2.7806891 L104.016,2.7806891 L103.968,2.6846891 L103.872,2.7806891 Z M105.984,4.8926891 L106.08,4.9886891 L106.272,4.9886891 L106.32,4.8926891 L107.328,5.0846891 L107.328,4.9886891 L108.576,5.1806891 L109.008,5.0846891 L109.632,5.1806891 L109.728,5.0846891 L109.728,5.2286891 C110.592,5.2286891 111.12,5.9966891 111.312,7.4846891 L110.88,8.6366891 C110.448,8.9726891 110.256,9.1646891 110.256,9.2606891 L110.208,9.1646891 L109.536,9.5966891 C108.48,10.1246891 107.52,10.6526891 106.704,11.2286891 L106.608,11.1326891 L106.608,11.2286891 L106.08,11.3726891 L106.08,11.3246891 L105.984,11.3246891 L105.888,11.3726891 L105.024,11.3726891 L104.928,11.3246891 L104.928,11.3726891 L104.832,11.3246891 L104.544,11.3726891 L104.448,11.3726891 L104.4,11.3246891 L104.304,11.3726891 L103.872,11.3726891 L103.776,11.3246891 L103.872,11.2286891 L103.776,11.1326891 L103.776,11.0366891 L103.872,10.9406891 L103.872,10.8926891 L103.776,10.5086891 L103.872,10.1726891 L103.872,9.6926891 L103.776,9.5966891 L103.872,9.5966891 L103.968,9.5486891 L103.872,9.4526891 C103.92,8.5406891 104.016,7.9646891 104.112,7.8206891 L104.016,7.7726891 L104.016,7.6766891 L104.112,7.5806891 L104.016,7.4846891 L104.016,6.9566891 L104.208,6.9566891 L104.016,6.7646891 L104.208,6.1406891 L104.112,6.1406891 L104.304,5.6126891 L104.304,5.5166891 L104.208,5.4206891 C104.496,5.1326891 104.88,4.9886891 105.312,4.9886891 L105.456,4.9886891 L105.552,5.0846891 L105.984,4.8926891 Z M136.944,0.8126891 C136.8,0.8126891 136.704,1.0046891 136.656,1.4366891 L136.752,1.4366891 L136.656,1.5326891 L136.752,1.7726891 L136.656,2.5886891 L136.752,3.0206891 L136.656,3.3086891 L136.752,3.5486891 L136.56,4.4606891 L136.656,4.4606891 L136.56,4.5566891 L136.176,7.6766891 L136.272,7.6766891 L135.84,10.9406891 L135.936,10.9406891 L135.84,12.8126891 C135.84,13.0046891 135.792,13.1006891 135.648,13.1006891 L135.744,13.3406891 L135.6,14.4446891 L135.648,14.4446891 L135.6,15.0686891 L135.6,15.1646891 L135.648,15.2126891 L135.6,15.2126891 L135.6,15.3086891 L135.648,15.4046891 L135.648,15.7886891 L135.6,15.8366891 L135.648,15.8366891 L135.648,15.9326891 L135.6,16.0286891 L135.6,16.5566891 L135.504,17.6126891 L135.408,17.6126891 L135.312,16.9406891 L135.408,16.9406891 L135.216,15.4046891 L135.312,15.1646891 L135.216,15.0686891 L135.216,14.6846891 L135.312,14.2526891 L135.216,14.1566891 L135.216,14.0606891 L135.312,14.0126891 C135.216,13.8686891 135.072,13.1486891 134.88,11.9486891 L134.88,11.8526891 L134.976,11.7566891 L134.784,11.2286891 L134.88,11.2286891 L134.496,9.2606891 L134.592,9.2606891 L133.968,6.0446891 L134.064,6.0446891 L133.872,5.7086891 L133.968,5.7086891 C133.632,4.2206891 133.296,3.3566891 133.008,3.1166891 L131.472,2.3966891 L131.376,2.4926891 C131.376,2.3006891 131.184,2.2046891 130.752,2.2046891 L130.752,2.0606891 C130.416,2.0606891 130.128,1.9646891 129.984,1.7726891 L129.696,1.7726891 L129.6,1.8686891 L129.36,1.6766891 L129.168,1.8686891 L128.928,4.1726891 L128.928,4.2686891 L128.976,4.3646891 L128.928,4.4606891 L128.928,5.7086891 L128.832,5.8046891 L128.928,5.8046891 L128.352,11.0366891 L128.448,11.0366891 L128.448,11.3246891 L128.352,11.3726891 L128.352,11.4686891 L128.448,11.5646891 L128.016,14.4926891 L128.112,14.4926891 L127.728,17.5646891 L127.824,17.6126891 L127.584,19.7726891 L127.632,19.8686891 L127.296,22.5086891 L127.392,22.6046891 L127.152,24.3806891 L127.2,24.3806891 L126.96,27.1646891 L127.056,27.2606891 L126.864,27.6926891 L126.96,27.6926891 L126.864,28.1726891 L126.864,29.0366891 L126.768,29.1326891 L126.864,29.1326891 L126.768,29.1806891 L126.864,29.2766891 L126.48,33.9326891 L126.96,34.6526891 C127.104,34.6526891 127.2,34.7486891 127.2,34.9406891 C128.016,34.9886891 128.496,35.0846891 128.64,35.1806891 L129.264,34.9886891 L129.696,35.0846891 C130.032,35.0846891 130.416,34.8926891 130.752,34.4606891 L130.608,34.1246891 L130.704,34.0286891 L130.704,33.8366891 L130.608,33.5006891 L130.848,32.1566891 L130.752,32.0606891 L131.04,30.5246891 L130.944,30.0446891 L131.04,29.9486891 L130.944,29.9486891 L130.848,29.8526891 L131.04,29.3726891 L131.04,29.2766891 L130.944,29.1806891 L131.184,27.4046891 L131.136,27.3566891 L131.28,26.9726891 L131.184,26.7326891 L131.472,25.7246891 L131.28,25.3886891 L131.568,24.0446891 L131.472,23.9486891 L131.568,23.8526891 L131.568,23.8046891 L131.472,23.7086891 L131.568,23.7086891 L131.472,23.6126891 L131.664,22.7966891 L131.568,22.7966891 L131.568,22.7006891 L131.664,22.6046891 L131.664,22.5086891 L131.568,22.4606891 C131.664,22.4606891 131.712,22.2686891 131.76,21.8366891 L131.664,21.7406891 C131.808,21.7406891 131.856,21.2126891 131.856,20.2046891 L131.952,20.2046891 L132.048,20.7326891 L131.952,21.1166891 L132.096,21.6446891 L132.048,21.6446891 C132.288,23.2286891 132.432,24.0446891 132.528,24.0446891 L132.48,24.1406891 L132.72,25.1966891 L132.72,25.2926891 L132.624,25.3886891 L132.816,25.9166891 L132.72,25.9166891 L133.008,26.9246891 L132.912,26.9246891 L133.104,27.5006891 L133.008,27.5966891 L133.872,31.9646891 L133.824,32.0606891 C134.064,33.0686891 134.256,33.5966891 134.4,33.6446891 C134.4,34.0286891 134.784,34.3166891 135.504,34.5566891 L135.6,34.4606891 L135.744,34.6526891 L135.84,34.6526891 L135.936,34.5566891 L136.128,34.5566891 L136.176,34.6526891 C136.176,34.5566891 136.56,34.4606891 137.28,34.3646891 L137.376,34.4606891 L137.424,34.4606891 C137.424,34.1726891 137.472,34.0286891 137.616,34.0286891 L137.52,33.7406891 L137.616,33.5006891 L137.424,33.2126891 L137.616,32.6846891 L137.52,32.1566891 L137.52,32.0606891 L137.616,31.9646891 L137.52,31.9646891 L137.712,31.1966891 L137.616,30.8126891 L137.616,30.4766891 L137.712,29.8526891 L137.616,29.7566891 L137.616,29.6606891 L137.712,29.5646891 L137.616,29.2766891 L137.712,29.2766891 C137.712,28.5566891 137.808,28.2206891 138,28.2206891 L138,27.7886891 L138.096,27.3566891 L138,27.2606891 L138.096,26.8286891 L138.096,26.7326891 L138,26.6366891 C138.144,26.3006891 138.24,25.6766891 138.24,24.7646891 L138.336,24.4766891 L138.24,24.4766891 L138.432,23.7086891 L138.336,23.7086891 L138.528,23.1806891 L138.432,22.3646891 L138.432,22.2686891 L138.624,21.7406891 L138.624,21.6446891 L138.528,21.5486891 L138.624,20.8286891 L138.528,20.3006891 C138.672,20.3006891 138.816,19.8206891 138.96,18.8126891 C138.912,18.8126891 138.816,18.6206891 138.768,18.2366891 L138.96,17.2766891 L138.864,16.8446891 L139.152,15.7886891 L139.056,15.7886891 L139.152,15.4046891 L139.056,15.0686891 L139.056,14.9726891 L139.152,14.8766891 L139.152,14.7806891 L139.056,14.6846891 L139.2,14.1566891 L139.2,14.0606891 L139.152,14.0126891 L139.2,13.7246891 L139.2,13.6286891 L139.152,13.5326891 L139.296,13.2446891 L139.2,13.2446891 L139.296,13.1966891 L139.2,12.7166891 L139.2,12.6686891 L139.296,12.5726891 L139.296,12.4766891 L139.2,12.3806891 L139.488,11.1326891 C139.872,9.7406891 140.064,8.0126891 140.064,5.9966891 L140.064,5.9006891 L140.208,5.9006891 C140.208,5.5646891 140.304,5.2286891 140.496,4.9886891 L140.496,4.8926891 L140.304,4.8926891 L140.304,4.7006891 C140.448,4.7006891 140.544,4.6046891 140.544,4.4606891 L140.496,4.4606891 L140.544,4.3646891 L140.496,4.2686891 L140.736,2.7806891 C140.496,2.6366891 140.4,2.5406891 140.4,2.3966891 L140.304,2.4926891 C140.016,2.3966891 139.872,2.2526891 139.872,2.0606891 L139.776,2.0606891 L139.68,2.1566891 C139.632,1.9646891 138.72,1.5326891 136.944,0.8126891 Z M146.496,2.3006891 L146.496,2.2046891 C145.68,2.7326891 144.96,3.5966891 144.384,4.7006891 C143.952,6.1886891 143.616,6.9566891 143.472,6.9566891 L143.568,7.0526891 L143.136,8.7326891 L143.184,8.7326891 L143.04,10.2206891 L143.136,10.3166891 L143.04,10.4126891 L143.04,11.7566891 L142.944,12.3806891 L143.04,12.3806891 L143.04,12.5246891 L142.944,12.8126891 L142.944,12.9086891 L143.04,13.0046891 L142.944,13.3406891 L142.944,16.6526891 L143.04,17.0846891 L142.944,17.1806891 L143.04,17.2766891 L143.04,17.3726891 L142.944,17.4206891 L143.04,17.5166891 L143.04,19.1966891 L143.136,19.2926891 L143.04,19.2926891 L143.136,19.5806891 L143.136,19.6766891 L143.04,19.7726891 L143.04,19.8686891 L143.136,19.9646891 L143.04,20.3006891 L143.04,20.5406891 L143.136,20.6366891 L143.04,20.6366891 L143.136,20.9246891 L143.136,21.0206891 L143.04,21.1166891 L143.136,21.6446891 L143.136,23.0846891 L143.04,23.1806891 L143.136,23.2286891 L143.136,24.7646891 L143.184,25.8206891 L143.136,25.9166891 L143.184,25.9166891 L143.136,26.0126891 L143.28,26.7806891 L143.28,26.8766891 L143.184,26.9726891 L143.376,27.6926891 L143.28,27.6926891 C143.712,30.3326891 144.048,31.6286891 144.192,31.6286891 L144.096,31.8686891 L144.48,32.3006891 L144.48,32.3966891 L144.384,32.4926891 C144.528,32.5406891 144.768,32.9246891 145.104,33.6446891 C145.392,33.9326891 145.536,34.1726891 145.536,34.3646891 C145.728,34.3646891 145.824,34.4126891 145.824,34.5566891 C146.256,35.1326891 147.072,35.5646891 148.176,35.8046891 L148.176,35.7086891 L148.752,35.9006891 L148.848,35.8046891 L148.944,35.8046891 L148.992,35.9006891 L148.992,35.8046891 L149.376,35.9006891 L149.424,35.9006891 L149.52,35.8046891 L149.52,35.9006891 L149.616,35.9006891 L149.712,35.8046891 L149.808,35.8046891 L149.904,35.9006891 L150.336,35.7086891 L150.336,35.8046891 L150.624,35.7086891 L150.864,35.8046891 L151.968,35.2286891 C152.16,34.9886891 152.352,34.8926891 152.496,34.8926891 C152.496,34.5086891 152.688,34.2206891 153.12,34.0286891 L153.12,33.7406891 L153.024,33.6446891 L153.12,33.6446891 L153.168,33.5486891 L153.744,32.5886891 C153.984,31.8206891 154.176,31.4366891 154.272,31.4366891 L154.176,31.1966891 L154.32,30.8126891 L154.272,30.5246891 L154.608,30.0926891 L154.512,29.9966891 L154.896,28.1246891 L154.8,28.0766891 C154.944,28.0766891 154.992,27.8366891 154.992,27.4046891 L154.992,27.1646891 L155.184,27.1646891 L155.184,27.0686891 L155.088,26.9726891 L155.088,26.7806891 L155.184,26.7326891 L155.088,26.6366891 L155.088,26.2526891 L155.184,26.2046891 L155.088,26.2046891 L155.184,25.9166891 L155.184,25.8206891 L155.088,25.7246891 L155.184,25.4366891 L155.184,25.3886891 L155.088,25.2926891 L155.184,24.9566891 L155.184,24.8606891 L155.088,24.7646891 L155.184,24.3806891 L155.184,24.2846891 L155.088,24.1886891 L155.184,24.1406891 L155.184,23.7566891 L155.088,23.6606891 L155.184,23.6126891 L155.184,23.5166891 L155.088,23.4206891 L155.184,23.3246891 L155.184,22.3166891 L155.232,22.2686891 L155.184,22.2686891 L155.184,22.1726891 L155.232,22.0766891 L155.232,21.2606891 L155.328,20.8286891 L155.232,20.5406891 L155.232,19.9646891 L155.328,19.8686891 L155.232,19.7726891 L155.232,19.3886891 L155.328,18.5246891 L155.232,18.4286891 L155.328,18.3326891 L155.328,18.1886891 L155.232,18.0926891 C155.376,18.0926891 155.52,17.4206891 155.664,16.0286891 L155.664,15.5966891 L155.616,15.5006891 L155.664,15.5006891 L155.616,15.4046891 L155.664,15.3086891 L155.616,15.2126891 L155.616,15.1646891 L155.664,15.0686891 L155.664,14.9726891 L155.616,14.8766891 L155.664,14.8766891 L155.664,14.7806891 L155.616,14.6846891 L155.616,14.5886891 L155.664,14.4926891 L155.616,14.3966891 L155.616,13.3406891 L155.52,13.2446891 L155.616,13.0046891 L155.76,13.0046891 L155.76,12.9086891 L155.616,12.9086891 C155.856,11.8046891 155.952,10.8926891 155.952,10.2206891 L155.952,9.9806891 L155.856,9.5006891 L155.952,9.4046891 L155.856,8.6366891 L155.856,8.3486891 L155.952,8.2526891 L156.048,8.2526891 L156.144,8.3486891 L156.144,8.2526891 C156.144,8.0126891 155.856,7.3406891 155.328,6.2366891 L154.416,5.3246891 C154.032,5.0366891 153.84,4.7966891 153.84,4.6046891 C153.408,4.5086891 153.168,4.4126891 153.12,4.2686891 C152.448,3.9806891 152.112,3.5966891 152.112,3.1166891 C151.968,3.1166891 151.872,3.0206891 151.872,2.8286891 L151.584,2.8286891 L151.488,2.9246891 L151.2,2.4926891 L151.152,2.5886891 C150.72,2.4446891 150.384,2.2046891 150.096,1.9646891 L150.096,1.8686891 L149.808,1.9646891 L149.376,1.6766891 L146.496,2.3006891 Z M149.376,5.0846891 C149.712,4.5566891 150.096,4.2686891 150.432,4.2686891 L150.624,4.2686891 L151.68,5.0846891 L152.4,6.4766891 L152.304,6.5726891 L152.544,7.4846891 L152.544,7.5806891 L152.496,7.6286891 L152.64,9.5966891 L152.544,9.6926891 L152.64,9.6926891 L152.544,9.7886891 L152.544,9.8846891 L152.64,9.9806891 L152.64,10.0766891 L152.544,10.1726891 L152.64,10.1726891 L152.544,12.5246891 L152.544,15.2126891 L152.64,15.6446891 L152.544,15.9326891 L152.544,16.6526891 L152.496,16.7486891 L152.544,16.8446891 L152.544,17.1806891 L152.496,17.2766891 L152.544,17.3726891 L152.544,18.7646891 L152.496,18.8606891 L152.544,18.9566891 L152.544,19.9646891 L152.496,20.8286891 L152.544,20.9246891 L152.4,21.1646891 L152.496,21.2606891 L152.496,21.5486891 L152.4,21.6446891 L152.496,21.6446891 L152.4,22.0766891 L152.4,22.1726891 L152.496,22.2686891 L152.4,22.3166891 L152.4,22.4126891 L152.496,22.5086891 L152.4,22.6046891 L152.4,23.8526891 L152.304,26.2526891 L152.208,26.3486891 L152.304,26.3486891 L151.872,28.4126891 C151.44,29.8046891 151.152,30.5246891 151.056,30.5246891 L151.152,30.6206891 L151.152,30.7166891 C150.528,32.2046891 149.76,33.1166891 148.944,33.4526891 C148.752,33.4526891 148.56,33.0206891 148.368,32.2046891 L148.464,32.1566891 C148.32,32.1566891 148.176,31.7246891 147.936,30.8126891 L147.312,27.5006891 L147.408,27.5006891 L147.312,27.0686891 L147.408,26.7326891 L147.312,26.7326891 L147.216,26.6366891 L147.312,26.2526891 L147.216,25.6286891 L147.312,25.1966891 L147.312,25.1006891 L147.216,25.0046891 L147.408,24.4766891 L147.216,24.2846891 L147.216,24.1886891 L147.312,24.1406891 L147.312,23.8526891 L147.216,23.7566891 L147.312,23.7566891 L147.216,23.4206891 L147.216,23.3246891 L147.312,23.2286891 L147.216,23.1806891 L147.216,23.0846891 L147.312,22.9886891 L147.216,22.8926891 L147.216,22.4126891 L147.312,22.3166891 L147.168,21.8846891 L147.216,21.8366891 L147.216,21.3566891 L147.168,20.9246891 L147.216,20.8286891 L147.168,20.5406891 L147.312,20.2046891 L147.168,19.8686891 L147.216,19.7726891 L147.216,19.3886891 L147.168,19.2926891 L147.216,19.2926891 L147.168,19.0526891 L147.216,18.7166891 C147.12,18.4766891 147.072,18.1406891 147.072,17.7086891 L147.072,16.8446891 L147.168,16.7486891 L147.072,16.7486891 L147.168,16.2686891 L146.976,16.2686891 L146.976,16.1726891 L147.072,16.1246891 L147.072,15.5966891 L146.976,15.5006891 L147.168,14.4926891 L147.072,14.2526891 L147.072,14.0606891 L147.168,13.9646891 L147.072,13.8686891 L147.072,13.3406891 L147.168,12.4766891 L147.072,12.3806891 L147.168,12.3806891 L147.072,12.2846891 L147.216,11.7566891 L147.168,11.7566891 L147.216,11.6606891 L147.168,11.5646891 L147.408,9.8846891 C147.648,8.5886891 147.84,7.9646891 148.032,7.9166891 L148.032,7.7246891 L147.936,7.6286891 C148.464,6.3326891 148.944,5.4206891 149.28,4.9886891 L149.376,5.0846891 Z M157.056,2.8766891 L156.96,2.9726891 L158.16,7.3886891 L158.112,7.3886891 L158.256,7.6766891 L158.256,7.9646891 L158.16,8.0606891 C158.304,8.1086891 158.592,8.7326891 158.928,9.9326891 L158.832,9.9326891 C158.976,10.3166891 159.36,12.1886891 159.984,15.5966891 L159.888,15.5966891 L160.08,15.9806891 L159.984,15.9806891 L160.128,16.6046891 L160.08,16.6046891 L160.224,16.9406891 L160.128,17.0366891 C160.32,17.2766891 160.416,17.7086891 160.416,18.2846891 L160.416,18.3806891 L160.32,18.4766891 L160.512,18.4766891 L160.512,19.0046891 L160.608,19.1006891 L160.512,19.1006891 L160.848,20.3006891 L160.752,20.3006891 L160.848,20.3966891 C161.04,21.4526891 161.328,22.6526891 161.76,23.9966891 L161.76,24.0926891 L161.664,24.1886891 L162.048,25.1486891 L161.952,25.3886891 L162.096,25.3886891 L162.048,25.4846891 L162.048,25.5806891 L162.624,27.9806891 L162.528,27.9806891 C162.912,29.7566891 163.104,31.0046891 163.104,31.8206891 L163.104,31.9166891 C163.2,32.0606891 163.296,32.4446891 163.44,33.1646891 L163.344,33.2126891 L163.536,33.2126891 L163.44,33.3086891 L163.632,33.7886891 L163.536,33.7886891 C163.584,34.2686891 163.68,34.5086891 163.824,34.5086891 L163.728,34.5566891 L164.256,35.1326891 L164.256,35.1806891 L164.16,35.2766891 L164.688,35.2766891 C164.688,35.5166891 164.88,35.6606891 165.216,35.6606891 L165.312,35.6606891 L165.408,35.5646891 L165.504,35.5646891 L165.6,35.6606891 L165.6,35.4686891 L166.032,35.6606891 L166.656,35.4686891 L166.752,35.4686891 L166.848,35.5646891 L166.944,35.5646891 L166.992,35.4686891 L167.376,35.6606891 L167.424,35.5646891 L167.52,35.5646891 L167.616,35.6606891 L167.616,35.5646891 C167.904,35.3246891 168.048,35.0846891 168.096,34.9406891 L168.096,34.8446891 L168,34.7486891 L168.624,33.1646891 L168.528,32.8766891 L168.72,32.5406891 L168.624,32.5406891 L168.528,32.4446891 L168.72,32.2526891 L168.72,32.2046891 L168.624,32.1086891 L169.152,30.9566891 L169.152,30.8606891 L169.056,30.7646891 C169.2,30.7646891 169.344,30.2366891 169.584,29.2286891 L169.68,29.2286891 C169.68,29.3726891 169.968,29.9006891 170.496,30.7646891 L170.496,30.8606891 L170.4,30.9566891 C170.544,30.9566891 170.976,31.5806891 171.648,32.7806891 L171.648,32.8766891 L171.552,32.9726891 C171.696,33.0686891 171.792,33.3086891 171.888,33.6926891 C171.888,33.8366891 172.368,34.1246891 173.328,34.5086891 L173.328,34.4126891 L173.424,34.5086891 L173.664,34.4126891 L174.192,34.5566891 L174.192,34.5086891 L174.48,34.4126891 C174.864,34.4126891 175.104,34.3166891 175.2,34.0766891 L175.2,33.9806891 L175.008,33.4046891 L175.104,33.4046891 C175.104,33.1646891 175.056,33.0686891 174.96,33.0686891 L174.864,33.0686891 L174.96,32.7806891 L174.96,32.7326891 L174.864,32.6366891 L175.008,32.2046891 L175.008,32.1086891 L174.96,32.0126891 L174.96,31.9166891 L175.008,31.8206891 L175.008,31.7246891 L174.96,31.6286891 L175.104,31.2926891 L175.104,31.1966891 L175.008,31.1006891 L175.296,30.0446891 L175.296,29.6126891 L175.2,29.5166891 L175.296,29.4206891 L175.104,29.4206891 L175.104,29.6126891 L175.008,29.6126891 L175.008,29.5166891 L175.104,29.2286891 L175.104,29.1806891 L175.008,29.0846891 L175.104,28.9886891 L175.104,28.8926891 L175.008,28.7966891 L175.104,28.7966891 C175.104,28.3646891 175.152,28.1726891 175.296,28.1726891 L175.2,27.5486891 L175.2,27.4526891 L175.296,27.3566891 L175.2,27.2606891 L175.392,27.2606891 L175.296,27.0206891 C175.584,26.4926891 175.728,26.0126891 175.728,25.5806891 L175.728,25.4846891 L175.632,25.3886891 L175.728,25.3886891 L175.632,25.2926891 L175.824,24.7646891 L175.728,24.5246891 L175.92,24.2366891 L175.92,24.1886891 L175.824,24.0926891 L175.92,23.9966891 L175.92,23.7086891 L175.824,23.6126891 L175.92,23.6126891 L176.016,23.5166891 L175.92,23.4206891 L176.112,22.1246891 L176.016,22.1246891 L176.16,21.4046891 L176.112,21.3086891 L176.16,20.7806891 L176.16,20.6846891 L176.112,20.5886891 L176.16,20.4926891 L176.16,19.6286891 L176.256,19.5326891 L176.16,19.5326891 L176.352,18.5246891 L176.256,18.4766891 L176.448,18.0926891 L176.352,18.0926891 L176.352,18.0446891 L176.448,17.9486891 L176.448,17.3726891 C176.448,16.6046891 176.496,16.0766891 176.64,15.7886891 L176.544,15.7886891 L177.072,14.0126891 L176.976,14.0126891 L176.88,13.9166891 L177.072,13.1966891 L176.976,13.1486891 L177.072,13.0526891 L177.072,12.5726891 L176.976,12.4766891 L177.072,12.3806891 L177.072,11.1806891 L177.168,10.7006891 L177.072,10.6046891 C177.12,10.0766891 177.312,9.5006891 177.6,8.9246891 L177.6,8.8286891 L177.504,8.7326891 L177.6,8.6846891 L177.6,7.3406891 L177.408,7.1486891 L177.504,7.0526891 L177.408,6.8126891 L177.6,6.4286891 L177.6,6.3326891 L177.504,6.2366891 L177.6,6.2366891 C177.6,5.9006891 177.696,5.6606891 177.888,5.4686891 L177.504,4.9406891 C176.688,4.2686891 175.584,3.5966891 174.192,2.8766891 L173.952,3.2126891 L174.048,3.3086891 L174.048,3.4046891 L173.952,3.5006891 L174.048,3.5966891 L174.048,3.8366891 L173.952,3.9326891 L174.048,3.9326891 L173.952,4.2206891 L173.952,4.2686891 L174.048,4.3646891 L173.952,4.3646891 L174.048,4.4606891 L173.952,4.7486891 L174.048,5.0366891 L173.952,5.0366891 L174.048,5.1326891 L173.952,5.1806891 L174.048,5.4686891 L174.048,5.5646891 L173.952,5.6126891 L174.048,6.1886891 L173.664,9.0206891 L173.664,10.4606891 L173.616,10.5086891 L173.664,10.5086891 L173.52,11.2286891 L173.616,11.3246891 L173.616,11.5166891 L173.52,11.6126891 L173.616,11.7086891 L173.616,11.8046891 L173.52,11.8526891 L173.616,11.8526891 L173.616,11.9486891 L173.52,12.0446891 L173.52,12.2846891 L173.616,12.3806891 L173.424,13.1966891 L173.52,13.1966891 L173.424,13.4846891 L173.424,13.5806891 L173.52,13.6286891 L173.328,13.9166891 L173.424,13.9166891 L173.232,14.8286891 L173.328,14.8286891 L172.896,19.5326891 L172.992,19.5326891 L172.32,25.1486891 L172.416,25.1966891 C172.368,25.1966891 172.32,25.4366891 172.272,25.9646891 L172.32,26.0606891 L172.272,26.9246891 L172.176,26.9246891 C172.176,26.6366891 172.08,26.4926891 171.888,26.4926891 L171.888,26.3966891 L171.984,26.3006891 L171.888,26.3006891 C171.36,25.5806891 171.024,25.1966891 170.832,25.1966891 L170.736,25.1966891 L170.64,25.2926891 L170.64,25.1966891 L170.736,25.1486891 C169.776,25.0526891 169.296,24.8606891 169.296,24.6206891 L169.2,24.7166891 L168.432,24.3326891 L168.336,24.3326891 L168.24,24.4286891 L168.24,24.3326891 L167.712,24.1886891 L167.712,24.2366891 L167.616,24.2366891 L167.52,24.1886891 L167.28,24.6206891 L167.28,24.7166891 L167.376,24.7646891 L166.368,27.2606891 L166.272,27.2606891 L166.176,27.1646891 C166.128,26.4446891 166.032,26.1086891 165.936,26.1086891 C165.936,25.5806891 165.84,25.2446891 165.648,25.0526891 L165.744,25.0526891 L165.6,24.6206891 L165.648,24.6206891 L165.408,23.9006891 L165.408,23.8046891 L165.504,23.7086891 L164.592,20.4926891 L164.592,20.3966891 L164.688,20.3006891 C164.592,20.3006891 164.4,19.5806891 164.16,18.1886891 L164.256,18.1886891 L163.728,16.4126891 L163.728,16.3166891 L163.824,16.2206891 L163.824,16.1726891 L163.728,16.0766891 L163.824,16.0766891 L163.44,14.1086891 C163.104,12.0926891 162.864,11.0846891 162.72,11.0846891 L162.816,10.9886891 L162.48,10.0286891 L162.528,10.0286891 L162.48,9.9326891 L161.664,7.1486891 L161.76,7.1486891 C161.76,6.8606891 161.616,6.4286891 161.376,5.9006891 L161.376,5.8046891 L161.472,5.7086891 C161.376,5.7086891 161.28,5.5166891 161.184,5.1806891 L161.184,5.1326891 L161.28,5.0366891 C161.136,4.7966891 161.04,4.6046891 161.04,4.3646891 C160.752,4.2206891 160.608,4.0766891 160.608,3.9326891 L160.416,3.9326891 L160.32,4.0286891 C160.32,3.8846891 159.888,3.6926891 159.072,3.5006891 C158.352,3.0686891 157.824,2.8766891 157.488,2.8766891 L157.056,2.8766891 Z"></path>
                    </g>
                    <g id="CLICK-HERE-TO" transform="translate(44.000000, 16.000000)" fill="#FFFFFF">
                        <path d="M5.7671,0.517165 C4.1831,0.517165 2.8871,1.006765 1.9367,1.985965 C0.9863,2.965165 0.4967,4.232365 0.4967,5.787565 C0.4967,7.342765 0.9575,8.609965 1.8503,9.589165 C2.7431,10.568365 3.9527,11.057965 5.4215,11.057965 C7.0055,11.057965 8.2439,10.539565 9.1367,9.502765 L8.5895,8.897965 C8.5319,8.840365 8.4455,8.811565 8.3591,8.811565 C8.2727,8.811565 8.2151,8.854765 8.1287,8.926765 C7.7543,9.272365 7.3223,9.502765 6.8615,9.675565 C6.5447,9.790765 6.0983,9.848365 5.4935,9.848365 C4.4567,9.848365 3.6071,9.502765 2.9447,8.782765 C2.2535,8.033965 1.9079,7.025965 1.9079,5.787565 C1.9079,4.549165 2.2679,3.555565 2.9591,2.806765 C4.0535,1.654765 5.6519,1.409965 7.8119,2.101165 C7.8119,2.158765 7.8407,2.374765 7.8695,2.749165 C7.8983,3.123565 7.9127,3.339565 7.9271,3.397165 C7.9559,3.569965 8.0711,3.656365 8.2439,3.656365 L8.9351,3.656365 L8.9351,1.237165 C7.6247,0.747565 6.5447,0.502765 5.7383,0.502765 L5.7671,0.517165 Z M17.0423,8.696365 L16.3367,8.696365 C16.1927,8.696365 16.0631,8.797165 16.0343,8.941165 C16.0199,8.998765 15.9767,9.358765 15.9479,9.761965 L12.2327,9.761965 L12.2327,1.669165 C12.2615,1.669165 12.9383,1.539565 13.0535,1.510765 C13.1831,1.481965 13.2695,1.366765 13.2695,1.237165 L13.2695,0.632365 L9.8135,0.632365 L9.8135,1.237165 C9.8135,1.366765 9.8999,1.481965 10.0295,1.510765 C10.1591,1.539565 10.8503,1.669165 10.8503,1.669165 L10.8503,9.891565 C10.8503,9.891565 10.1591,10.021165 10.0295,10.049965 C9.8999,10.078765 9.8135,10.193965 9.8135,10.323565 L9.8135,10.942765 L17.0423,10.942765 L17.0423,8.696365 Z M21.2759,1.510765 C21.4199,1.481965 21.4919,1.381165 21.4919,1.237165 L21.4919,0.632365 L18.0215,0.632365 L18.0215,1.237165 C18.0215,1.381165 18.0791,1.467565 18.1943,1.496365 C18.3095,1.525165 18.5975,1.582765 19.0583,1.669165 L19.0583,9.891565 L18.2231,10.049965 C18.0791,10.078765 18.0215,10.179565 18.0215,10.323565 L18.0215,10.942765 L21.4919,10.942765 L21.4919,10.323565 C21.4919,10.179565 21.4343,10.093165 21.3191,10.064365 C21.2039,10.035565 20.9015,9.977965 20.4407,9.891565 L20.4407,1.669165 L21.2759,1.510765 Z M27.5111,0.517165 C25.9271,0.517165 24.6311,1.006765 23.6807,1.985965 C22.7303,2.965165 22.2407,4.232365 22.2407,5.787565 C22.2407,7.342765 22.7015,8.609965 23.5943,9.589165 C24.4871,10.568365 25.6967,11.057965 27.1655,11.057965 C28.7495,11.057965 29.9879,10.539565 30.8807,9.502765 L30.3335,8.897965 C30.2759,8.840365 30.1895,8.811565 30.1031,8.811565 C30.0167,8.811565 29.9591,8.854765 29.8727,8.926765 C29.4983,9.272365 29.0663,9.502765 28.6055,9.675565 C28.2887,9.790765 27.8423,9.848365 27.2375,9.848365 C26.2007,9.848365 25.3511,9.502765 24.6887,8.782765 C23.9975,8.033965 23.6519,7.025965 23.6519,5.787565 C23.6519,4.549165 24.0119,3.555565 24.7031,2.806765 C25.7975,1.654765 27.3959,1.409965 29.5559,2.101165 C29.5559,2.158765 29.5847,2.374765 29.6135,2.749165 C29.6423,3.123565 29.6567,3.339565 29.6711,3.397165 C29.6999,3.569965 29.8151,3.656365 29.9879,3.656365 L30.6791,3.656365 L30.6791,1.237165 C29.3687,0.747565 28.2887,0.502765 27.4823,0.502765 L27.5111,0.517165 Z M40.7159,10.093165 C40.6295,10.064365 40.3847,10.021165 39.9815,9.934765 L36.7127,6.046765 C36.4823,5.758765 36.2519,5.585965 36.0503,5.528365 C36.2231,5.441965 36.4103,5.297965 36.6119,5.067565 L39.6791,1.597165 C40.0535,1.510765 40.2551,1.453165 40.3415,1.424365 C40.4855,1.395565 40.5719,1.294765 40.5719,1.150765 L40.5431,0.603565 L37.2887,0.603565 L37.2887,1.179565 C37.2887,1.323565 37.3463,1.409965 37.4903,1.438765 C37.5767,1.453165 37.7783,1.496365 38.1239,1.553965 L35.2439,4.837165 C35.0711,5.038765 34.8119,5.125165 34.4951,5.125165 L33.9767,5.125165 L33.9767,1.669165 C34.0919,1.640365 34.3511,1.582765 34.7831,1.496365 C34.9271,1.467565 35.0135,1.366765 35.0135,1.222765 L35.0135,0.603565 L31.5431,0.603565 L31.5431,1.222765 C31.5431,1.366765 31.6151,1.467565 31.7591,1.496365 C31.8455,1.525165 32.1191,1.582765 32.5799,1.669165 L32.5799,9.877165 L31.7591,10.049965 C31.6151,10.078765 31.5431,10.165165 31.5431,10.309165 L31.5431,10.928365 L35.0135,10.928365 L35.0135,10.309165 C35.0135,10.165165 34.9271,10.078765 34.7831,10.049965 C34.3943,9.963565 34.1351,9.905965 33.9767,9.877165 L33.9767,6.190765 L34.6103,6.190765 C34.7255,6.190765 34.8407,6.190765 34.9703,6.219565 C35.0999,6.248365 35.2439,6.363565 35.4167,6.536365 L38.3975,9.963565 C38.0087,10.049965 37.7927,10.093165 37.7351,10.093165 C37.5911,10.121965 37.5335,10.193965 37.5335,10.337965 L37.5335,10.913965 L40.9175,10.913965 L40.9175,10.337965 C40.9175,10.193965 40.8455,10.107565 40.7015,10.078765 L40.7159,10.093165 Z M55.1015,1.510765 C55.2455,1.481965 55.3175,1.381165 55.3175,1.237165 L55.3175,0.632365 L51.8327,0.632365 L51.8327,1.237165 C51.8327,1.381165 51.8903,1.467565 52.0055,1.496365 C52.1207,1.525165 52.4087,1.582765 52.8695,1.669165 L52.8695,5.225965 L47.3111,5.225965 L47.3111,1.669165 C47.8007,1.582765 48.0887,1.525165 48.1895,1.496365 C48.2903,1.467565 48.3335,1.381165 48.3335,1.237165 L48.3335,0.632365 L44.8631,0.632365 L44.8631,1.237165 C44.8631,1.381165 44.9207,1.467565 45.0359,1.496365 C45.1511,1.525165 45.4391,1.582765 45.8999,1.669165 L45.8999,9.891565 L45.0791,10.049965 C44.9351,10.078765 44.8631,10.179565 44.8631,10.323565 L44.8631,10.942765 L48.3335,10.942765 L48.3335,10.323565 C48.3335,10.179565 47.9879,10.035565 47.2967,9.891565 L47.2967,6.248365 L52.8551,6.248365 L52.8551,9.891565 L52.0487,10.049965 C51.9047,10.078765 51.8183,10.179565 51.8183,10.323565 L51.8183,10.942765 L55.3031,10.942765 L55.3031,10.323565 C55.3031,10.179565 55.2455,10.093165 55.1303,10.064365 C55.0151,10.035565 54.7271,9.977965 54.2663,9.891565 L54.2663,1.669165 L55.1015,1.510765 Z M56.2391,0.632365 L56.2391,1.237165 C56.2391,1.381165 56.3111,1.481965 56.4551,1.510765 C56.5415,1.539565 56.8151,1.597165 57.2759,1.683565 L57.2759,9.905965 L56.4551,10.064365 C56.3111,10.093165 56.2391,10.193965 56.2391,10.337965 L56.2391,10.942765 L63.6407,10.942765 L63.6407,8.552365 L62.9495,8.552365 C62.7767,8.552365 62.6615,8.609965 62.6327,8.782765 C62.6327,8.825965 62.6039,9.185965 62.5463,9.819565 L58.6871,9.819565 L58.6871,6.291565 L62.4887,6.291565 L62.4887,5.197165 L58.6871,5.197165 L58.6871,1.769965 L62.5463,1.769965 C62.6039,2.461165 62.6471,2.835565 62.6471,2.878765 C62.6759,3.051565 62.7767,3.123565 62.9495,3.123565 L63.6407,3.123565 L63.6407,0.632365 L56.2391,0.632365 Z M73.2455,10.049965 C73.1303,10.021165 72.5255,9.920365 72.4391,9.905965 L70.2071,6.853165 C70.0631,6.651565 69.9191,6.521965 69.7463,6.421165 C70.1495,6.334765 70.4951,6.176365 70.8119,6.003565 C71.1287,5.830765 71.3879,5.614765 71.6039,5.355565 C71.8199,5.096365 71.9927,4.808365 72.1079,4.491565 C72.2231,4.174765 72.2807,3.857965 72.2807,3.483565 C72.2807,3.051565 72.2087,2.633965 72.0647,2.288365 C71.9207,1.942765 71.6903,1.640365 71.3735,1.381165 C71.0567,1.121965 70.6679,0.934765 70.1927,0.805165 C69.7175,0.675565 69.1559,0.603565 68.4935,0.603565 L64.6775,0.603565 L64.6775,1.237165 C64.6775,1.366765 64.7639,1.467565 64.8935,1.496365 C65.0231,1.525165 65.7287,1.669165 65.7287,1.669165 L65.7287,9.877165 C65.7287,9.877165 65.0231,10.021165 64.8935,10.049965 C64.7639,10.078765 64.6775,10.179565 64.6775,10.309165 L64.6775,10.928365 L68.1479,10.928365 L68.1479,10.309165 C68.1479,10.179565 68.0471,10.078765 67.9175,10.049965 C67.8023,10.021165 67.1111,9.877165 67.1111,9.877165 L67.1111,6.622765 L68.0327,6.622765 C68.2343,6.622765 68.3783,6.651565 68.4647,6.709165 C68.5511,6.766765 68.6375,6.838765 68.7239,6.953965 L71.4023,10.640365 C71.5175,10.841965 71.6903,10.942765 71.9495,10.942765 L73.4471,10.942765 L73.4471,10.309165 C73.4471,10.179565 73.3607,10.078765 73.2311,10.049965 L73.2455,10.049965 Z M68.4215,5.614765 L67.0967,5.614765 L67.0967,1.726765 L68.4935,1.726765 C69.2999,1.726765 69.8903,1.870765 70.2935,2.187565 C70.6967,2.504365 70.8983,2.965165 70.8983,3.569965 C70.8983,3.872365 70.8551,4.145965 70.7399,4.405165 C70.6247,4.664365 70.4663,4.865965 70.2647,5.038765 C70.0631,5.211565 69.8039,5.369965 69.4871,5.470765 C69.1703,5.571565 68.8103,5.614765 68.4071,5.614765 L68.4215,5.614765 Z M74.3255,0.632365 L74.3255,1.237165 C74.3255,1.381165 74.3975,1.481965 74.5415,1.510765 C74.6279,1.539565 74.9015,1.597165 75.3623,1.683565 L75.3623,9.905965 L74.5415,10.064365 C74.3975,10.093165 74.3255,10.193965 74.3255,10.337965 L74.3255,10.942765 L81.7271,10.942765 L81.7271,8.552365 L81.0359,8.552365 C80.8631,8.552365 80.7479,8.609965 80.7191,8.782765 C80.7191,8.825965 80.6903,9.185965 80.6327,9.819565 L76.7735,9.819565 L76.7735,6.291565 L80.5751,6.291565 L80.5751,5.197165 L76.7735,5.197165 L76.7735,1.769965 L80.6327,1.769965 C80.6903,2.461165 80.7335,2.835565 80.7335,2.878765 C80.7623,3.051565 80.8631,3.123565 81.0359,3.123565 L81.7271,3.123565 L81.7271,0.632365 L74.3255,0.632365 Z" id="CLICK-HERE"></path>
                        <path d="M94.1975,0.632365 L85.7015,0.632365 L85.7015,2.907565 L86.3927,2.907565 C86.5655,2.907565 86.6519,2.864365 86.6807,2.763565 C86.7095,2.662765 86.7527,2.345965 86.8103,1.798765 L89.2439,1.798765 L89.2439,9.891565 C88.8695,9.963565 88.6103,10.021165 88.4519,10.049965 C88.2935,10.078765 88.2071,10.193965 88.2071,10.337965 L88.2071,10.942765 L91.6919,10.942765 L91.6919,10.337965 C91.6919,10.193965 91.6487,10.107565 91.5479,10.078765 C91.4471,10.049965 91.2023,10.006765 90.8279,9.934765 C90.7127,9.905965 90.6551,9.905965 90.6551,9.905965 L90.6551,1.813165 L93.0743,1.813165 C93.1319,2.360365 93.1895,2.662765 93.2183,2.763565 C93.2471,2.864365 93.3191,2.907565 93.4919,2.907565 L94.1975,2.907565 L94.1975,0.632365 Z" id="T"></path>
                        <path d="M104.3063,5.787565 C104.3063,5.009965 104.1911,4.304365 103.9463,3.656365 C103.7015,3.008365 103.3559,2.446765 102.9095,1.985965 C102.4631,1.525165 101.9303,1.165165 101.2967,0.905965 C100.6631,0.646765 99.9719,0.517165 99.2231,0.517165 C98.4743,0.517165 97.7831,0.646765 97.1495,0.905965 C96.5159,1.165165 95.9831,1.539565 95.5367,2.000365 C95.0903,2.461165 94.7447,3.022765 94.4999,3.670765 C94.2551,4.318765 94.1255,5.024365 94.1255,5.801965 C94.1255,6.579565 94.2551,7.285165 94.4999,7.933165 C94.7447,8.581165 95.0903,9.142765 95.5367,9.603565 C95.9831,10.064365 96.5159,10.424365 97.1495,10.683565 C97.7831,10.942765 98.4743,11.086765 99.2231,11.086765 C99.9719,11.086765 100.6631,10.942765 101.2967,10.683565 C101.9303,10.424365 102.4487,10.064365 102.8951,9.603565 C103.3415,9.142765 103.6871,8.581165 103.9319,7.933165 C104.1767,7.285165 104.2919,6.593965 104.2919,5.816365 L104.3063,5.787565 Z M102.8663,5.816365 C102.8663,6.449965 102.7799,7.011565 102.6071,7.515565 C102.4343,8.019565 102.1895,8.437165 101.8727,8.782765 C101.5559,9.128365 101.1815,9.401965 100.7207,9.589165 C100.2599,9.776365 99.7559,9.877165 99.2087,9.877165 C98.6615,9.877165 98.1575,9.776365 97.6967,9.589165 C97.2359,9.401965 96.8615,9.128365 96.5447,8.782765 C96.2279,8.437165 95.9687,8.019565 95.7959,7.515565 C95.6231,7.011565 95.5367,6.449965 95.5367,5.816365 C95.5367,5.182765 95.6231,4.606765 95.7959,4.102765 C95.9687,3.598765 96.2279,3.166765 96.5447,2.821165 C96.8615,2.475565 97.2359,2.216365 97.6967,2.029165 C98.1575,1.841965 98.6471,1.755565 99.1943,1.755565 C99.7415,1.755565 100.2599,1.841965 100.7207,2.029165 C101.1815,2.216365 101.5559,2.475565 101.8727,2.821165 C102.1895,3.166765 102.4199,3.598765 102.5927,4.102765 C102.7655,4.606765 102.8519,5.182765 102.8519,5.816365 L102.8663,5.816365 Z" id="O"></path>
                    </g>
                    <g id="Group-7" transform="translate(0.000000, 0.247300)">
                        <g id="Group-3" transform="translate(0.000000, 82.000000)">
                            <g id="Fill-1-Clipped">
                                <mask id="mask-2" fill="white">
                                    <use xlink:href="#path-1"></use>
                                </mask>
                                <g id="path-1"></g>
                                <path d="M187.7603,5.5185 L186.7413,5.3065 L186.6133,5.3065 L186.3593,5.4125 L184.4483,5.2535 L184.4483,5.3065 L184.1933,5.2535 L179.8613,5.5185 L179.6073,5.4125 L176.4223,5.4125 L176.1673,5.5185 L176.1673,5.4125 L172.3453,5.6245 L172.0903,5.5185 L171.8353,5.5185 L171.5803,5.6245 L171.5803,5.5185 L169.0323,5.7305 L169.0323,5.6245 L167.3763,5.7305 L166.4853,5.6245 L165.0833,5.7305 L163.8093,5.7305 L163.5543,5.6245 L126.1033,5.8355 L125.8483,5.7305 L124.4473,5.7305 L124.1923,5.8355 L124.1923,5.7305 L118.8413,5.9945 L118.5873,5.8885 L118.3323,5.9945 L118.0773,5.9945 L117.8223,5.8885 L117.8223,5.9945 L117.5673,6.1005 L117.3133,5.9945 C114.8923,6.0475 113.2363,6.1535 112.4723,6.3125 L112.4723,6.2065 L112.2173,6.2065 L111.9623,6.3125 L109.5413,6.3125 L109.2873,6.4185 L109.2873,6.3125 L108.1403,6.4185 L107.8853,6.4185 L106.9933,6.3125 L105.9743,6.4185 L103.4263,6.4185 L103.1713,6.5235 L103.0443,6.4185 L36.1673,6.4185 L35.9123,6.5235 L35.6573,6.4185 L34.2563,6.4185 L34.1283,6.5235 L33.8743,6.4185 L33.3643,6.4185 L33.1093,6.5235 L33.1093,6.4185 L32.8553,6.5235 L32.2183,6.4185 L31.4533,6.5235 L31.1983,6.4185 L30.0523,6.5235 L29.7973,6.4185 L29.7973,6.5235 L29.5423,6.4185 L27.3763,6.5235 L27.1223,6.5235 L26.9943,6.4185 L26.7393,6.5235 L26.4853,6.5235 L26.2303,6.4185 L26.2303,6.5235 L25.9753,6.6295 L25.8483,6.6295 L25.5933,6.5235 L24.5743,6.5235 L24.3193,6.6295 L24.3193,6.5235 L24.1913,6.6295 L23.4273,6.5235 L22.4083,6.6295 L21.7713,6.6295 L21.5163,6.5235 L21.5163,6.6295 L20.6243,6.5235 L20.3703,6.5235 L20.1153,6.6295 L19.3503,6.5235 L19.3503,6.6295 L19.0963,6.5235 L18.4593,6.6295 L17.5673,6.5235 L16.4203,6.5235 L16.1653,6.6295 L15.9113,6.5235 L14.6373,6.5235 L14.3823,6.6295 L14.3823,6.5235 L11.0693,6.7355 L11.0693,6.6295 L8.1393,6.7885 L7.8843,6.7355 L5.8463,6.8945 L5.7193,6.7885 L3.8083,7.0005 C2.0243,6.4185 1.1323,5.9415 1.0053,5.6245 L1.0053,5.5185 L1.1323,5.4125 L0.7503,4.8305 L1.0053,4.7775 L0.4953,4.7775 L0.7503,4.6715 L0.7503,4.5665 L0.4953,4.4605 L1.1323,3.1905 L1.0053,3.1905 L1.8973,2.7675 L2.1523,2.7675 L1.8973,2.5025 C1.8973,2.3435 2.6613,2.2375 4.0633,2.1845 L4.0633,2.2905 L8.1393,2.1845 L9.0313,2.1845 L9.2863,2.0795 L9.2863,2.1845 L9.4133,2.1845 L9.6683,2.0795 L14.8913,2.0795 L15.1463,2.1845 L15.1463,2.0795 L16.1653,2.1845 L16.4203,2.1845 L16.5483,2.0795 L16.8023,2.1845 L17.0573,2.1845 L17.3123,2.0795 L17.5673,2.1845 L18.4593,2.1845 L18.7133,2.0795 L18.7133,2.1845 L22.4083,1.9735 L22.6633,1.9735 L22.9173,2.0795 C22.9173,1.9205 23.6823,1.8675 25.3383,1.8675 L29.1603,1.8675 L29.4153,1.9735 L29.5423,1.8675 L31.9633,1.8675 L32.2183,1.9735 L32.3453,1.8675 L103.0443,1.8675 L103.1713,1.8145 L103.1713,1.8675 L107.7583,1.7085 L107.8853,1.7085 L108.1403,1.8145 L109.7963,1.6025 L110.0513,1.7085 L111.4523,1.3915 L111.4523,1.4975 L120.8803,1.1265 L120.8803,1.2325 L122.0263,1.1265 L123.3003,1.1265 L123.5553,1.2325 L123.8103,1.1265 L125.8483,1.1265 L126.1033,1.2325 L126.1033,1.1265 L126.3583,1.2325 L163.3003,1.1265 L163.5543,1.1265 L163.8093,1.2325 L164.0643,1.1265 L166.4853,1.1265 L167.6313,1.0205 L167.8863,1.1265 L172.3453,0.8095 L172.6003,0.9155 L172.8543,0.9155 L173.1093,0.8095 L173.7463,0.9155 L174.0013,0.8095 L178.3333,0.8095 L178.4603,0.9155 L179.4793,0.7035 L179.6073,0.8095 L182.2823,0.8095 L183.4283,0.7035 L183.6833,0.8095 L183.9383,0.8095 L183.9383,0.5975 L184.1933,0.5975 L186.1043,1.3385 L186.1043,1.8145 L186.7413,1.8675 C187.3783,2.9785 188.1423,3.9845 189.1613,4.9365 L189.1613,5.4125 L187.7603,5.5185 Z" id="Fill-1" fill="#FEFEFE" mask="url(#mask-2)"></path>
                            </g>
                        </g>
                        <g id="Group-6">
                            <g id="Fill-4-Clipped">
                                <mask id="mask-4" fill="white">
                                    <use xlink:href="#path-3"></use>
                                </mask>
                                <g id="path-3"></g>
                                <path d="M1.8971,2.2343 L2.9161,2.4463 L3.0441,2.4463 L3.2981,2.3403 L5.2091,2.4993 L5.2091,2.4463 L5.4641,2.4993 L9.7961,2.2343 L10.0501,2.3403 L13.2351,2.3403 L13.4901,2.2343 L13.4901,2.3403 L17.3121,2.1283 L17.5671,2.2343 L17.8221,2.2343 L18.0771,2.1283 L18.0771,2.2343 L20.6251,2.0223 L20.6251,2.1283 L22.2811,2.0223 L23.1721,2.1283 L24.5741,2.0223 L25.8481,2.0223 L26.1031,2.1283 L63.5541,1.9173 L63.8091,2.0223 L65.2101,2.0223 L65.4651,1.9173 L65.4651,2.0223 L70.8161,1.7583 L71.0701,1.8643 L71.3251,1.7583 L71.5801,1.7583 L71.8351,1.8643 L71.8351,1.7583 L72.0901,1.6523 L72.3441,1.7583 C74.7651,1.7053 76.4211,1.5993 77.1851,1.4403 L77.1851,1.5463 L77.4401,1.5463 L77.6951,1.4403 L80.1161,1.4403 L80.3701,1.3343 L80.3701,1.4403 L81.5171,1.3343 L81.7721,1.3343 L82.6641,1.4403 L83.6831,1.3343 L86.2311,1.3343 L86.4861,1.2293 L86.6131,1.3343 L153.4901,1.3343 L153.7451,1.2293 L154.0001,1.3343 L155.4011,1.3343 L155.5291,1.2293 L155.7831,1.3343 L156.2931,1.3343 L156.5481,1.2293 L156.5481,1.3343 L156.8021,1.2293 L157.4391,1.3343 L158.2041,1.2293 L158.4591,1.3343 L159.6051,1.2293 L159.8601,1.3343 L159.8601,1.2293 L160.1151,1.3343 L162.2811,1.2293 L162.5351,1.2293 L162.6631,1.3343 L162.9181,1.2293 L163.1721,1.2293 L163.4271,1.3343 L163.4271,1.2293 L163.6821,1.1233 L163.8091,1.1233 L164.0641,1.2293 L165.0831,1.2293 L165.3381,1.1233 L165.3381,1.2293 L165.4661,1.1233 L166.2301,1.2293 L167.2491,1.1233 L167.8861,1.1233 L168.1411,1.2293 L168.1411,1.1233 L169.0331,1.2293 L169.2871,1.2293 L169.5421,1.1233 L170.3071,1.2293 L170.3071,1.1233 L170.5611,1.2293 L171.1981,1.1233 L172.0901,1.2293 L173.2371,1.2293 L173.4921,1.1233 L173.7461,1.2293 L175.0201,1.2293 L175.2751,1.1233 L175.2751,1.2293 L178.5881,1.0173 L178.5881,1.1233 L181.5181,0.9643 L181.7731,1.0173 L183.8111,0.8583 L183.9381,0.9643 L185.8491,0.7523 C187.6331,1.3343 188.5251,1.8113 188.6521,2.1283 L188.6521,2.2343 L188.5251,2.3403 L188.9071,2.9223 L188.6521,2.9753 L189.1621,2.9753 L188.9071,3.0813 L188.9071,3.1863 L189.1621,3.2923 L188.5251,4.5623 L188.6521,4.5623 L187.7601,4.9853 L187.5051,4.9853 L187.7601,5.2503 C187.7601,5.4093 186.9961,5.5153 185.5941,5.5683 L185.5941,5.4623 L181.5181,5.5683 L180.6261,5.5683 L180.3711,5.6733 L180.3711,5.5683 L180.2441,5.5683 L179.9891,5.6733 L174.7661,5.6733 L174.5111,5.5683 L174.5111,5.6733 L173.4921,5.5683 L173.2371,5.5683 L173.1091,5.6733 L172.8551,5.5683 L172.6001,5.5683 L172.3451,5.6733 L172.0901,5.5683 L171.1981,5.5683 L170.9441,5.6733 L170.9441,5.5683 L167.2491,5.7793 L166.9941,5.7793 L166.7401,5.6733 C166.7401,5.8323 165.9751,5.8853 164.3191,5.8853 L160.4971,5.8853 L160.2421,5.7793 L160.1151,5.8853 L157.6941,5.8853 L157.4391,5.7793 L157.3121,5.8853 L86.6131,5.8853 L86.4861,5.9383 L86.4861,5.8853 L81.8991,6.0443 L81.7721,6.0443 L81.5171,5.9383 L79.8611,6.1503 L79.6061,6.0443 L78.2051,6.3613 L78.2051,6.2553 L68.7771,6.6263 L68.7771,6.5203 L67.6311,6.6263 L66.3571,6.6263 L66.1021,6.5203 L65.8471,6.6263 L63.8091,6.6263 L63.5541,6.5203 L63.5541,6.6263 L63.2991,6.5203 L26.3571,6.6263 L26.1031,6.6263 L25.8481,6.5203 L25.5931,6.6263 L23.1721,6.6263 L22.0261,6.7323 L21.7711,6.6263 L17.3121,6.9433 L17.0571,6.8373 L16.8031,6.8373 L16.5481,6.9433 L15.9111,6.8373 L15.6561,6.9433 L11.3241,6.9433 L11.1971,6.8373 L10.1781,7.0493 L10.0501,6.9433 L7.3751,6.9433 L6.2291,7.0493 L5.9741,6.9433 L5.7191,6.9433 L5.7191,7.1553 L5.4641,7.1553 L3.5531,6.4143 L3.5531,5.9383 L2.9161,5.8853 C2.2791,4.7743 1.5151,3.7683 0.4961,2.8163 L0.4961,2.3403 L1.8971,2.2343 Z" id="Fill-4" fill="#FEFEFE" mask="url(#mask-4)"></path>
                            </g>
                        </g>
                    </g>
                </g>
            </g>
        </g>
    </g>
</svg>